# Blender v2.80 (sub 75) OBJ File: 'reageerbuisje.blend'
# www.blender.org
mtllib reageerbuisje.mtl
o Sphere
v 0.000000 -0.025432 -0.027779
v 0.009012 -0.002993 -0.045306
v 0.008111 -0.011637 -0.040775
v 0.006897 -0.019214 -0.034676
v 0.005419 -0.025432 -0.027245
v 0.003733 -0.030053 -0.018767
v 0.001903 -0.032898 -0.009567
v 0.017678 -0.002993 -0.042678
v 0.015909 -0.011637 -0.038409
v 0.013530 -0.019214 -0.032664
v 0.010630 -0.025432 -0.025664
v 0.007322 -0.030053 -0.017678
v 0.003733 -0.032898 -0.009012
v 0.025664 -0.002993 -0.038409
v 0.023097 -0.011637 -0.034567
v 0.019642 -0.019214 -0.029397
v 0.015433 -0.025432 -0.023097
v 0.010630 -0.030053 -0.015909
v 0.005419 -0.032898 -0.008111
v 0.032664 -0.002993 -0.032664
v 0.029397 -0.011637 -0.029397
v 0.025000 -0.019214 -0.025000
v 0.019642 -0.025432 -0.019642
v 0.013530 -0.030053 -0.013530
v 0.006897 -0.032898 -0.006897
v 0.038409 -0.002993 -0.025664
v 0.034567 -0.011637 -0.023097
v 0.029397 -0.019214 -0.019642
v 0.023097 -0.025432 -0.015433
v 0.015909 -0.030053 -0.010630
v 0.008111 -0.032898 -0.005419
v 0.042678 -0.002993 -0.017678
v 0.038409 -0.011637 -0.015909
v 0.032664 -0.019214 -0.013530
v 0.025664 -0.025432 -0.010630
v 0.017678 -0.030053 -0.007322
v 0.009012 -0.032898 -0.003733
v 0.045306 -0.002993 -0.009012
v 0.040775 -0.011637 -0.008111
v 0.034676 -0.019214 -0.006897
v 0.027245 -0.025432 -0.005419
v 0.018767 -0.030053 -0.003733
v 0.009567 -0.032898 -0.001903
v 0.046194 -0.002993 0.000000
v 0.041573 -0.011637 0.000000
v 0.035355 -0.019214 0.000000
v 0.027779 -0.025432 0.000000
v 0.019134 -0.030053 0.000000
v 0.009755 -0.032898 0.000000
v 0.045306 -0.002993 0.009012
v 0.040775 -0.011637 0.008111
v 0.034676 -0.019214 0.006898
v 0.027245 -0.025432 0.005419
v 0.018767 -0.030053 0.003733
v 0.009567 -0.032898 0.001903
v 0.042678 -0.002993 0.017678
v 0.038409 -0.011637 0.015910
v 0.032664 -0.019214 0.013530
v 0.025664 -0.025432 0.010630
v 0.017678 -0.030053 0.007322
v 0.009012 -0.032898 0.003733
v 0.038409 -0.002993 0.025664
v 0.034567 -0.011637 0.023097
v 0.029397 -0.019214 0.019642
v 0.023097 -0.025432 0.015433
v 0.015909 -0.030053 0.010630
v 0.008111 -0.032898 0.005419
v 0.032664 -0.002993 0.032664
v 0.029397 -0.011637 0.029397
v 0.025000 -0.019214 0.025000
v 0.019642 -0.025432 0.019642
v 0.013530 -0.030053 0.013530
v 0.006897 -0.032898 0.006898
v 0.025664 -0.002993 0.038409
v 0.023097 -0.011637 0.034567
v 0.019642 -0.019214 0.029397
v 0.015433 -0.025432 0.023097
v 0.010630 -0.030053 0.015910
v 0.005419 -0.032898 0.008111
v 0.000000 -0.033859 0.000000
v 0.017678 -0.002993 0.042678
v 0.015909 -0.011637 0.038409
v 0.013530 -0.019214 0.032664
v 0.010630 -0.025432 0.025664
v 0.007322 -0.030053 0.017678
v 0.003733 -0.032898 0.009012
v 0.009012 -0.002993 0.045306
v 0.008111 -0.011637 0.040775
v 0.006897 -0.019214 0.034676
v 0.005419 -0.025432 0.027245
v 0.003733 -0.030053 0.018767
v 0.001903 -0.032898 0.009567
v 0.000000 -0.002993 0.046194
v -0.000000 -0.011637 0.041573
v -0.000000 -0.019214 0.035355
v -0.000000 -0.025432 0.027779
v 0.000000 -0.030053 0.019134
v 0.000000 -0.032898 0.009755
v -0.009012 -0.002993 0.045306
v -0.008111 -0.011637 0.040775
v -0.006897 -0.019214 0.034676
v -0.005419 -0.025432 0.027245
v -0.003733 -0.030053 0.018767
v -0.001903 -0.032898 0.009567
v -0.017678 -0.002993 0.042678
v -0.015909 -0.011637 0.038409
v -0.013530 -0.019214 0.032664
v -0.010630 -0.025432 0.025664
v -0.007322 -0.030053 0.017678
v -0.003733 -0.032898 0.009012
v -0.025664 -0.002993 0.038409
v -0.023097 -0.011637 0.034567
v -0.019642 -0.019214 0.029397
v -0.015433 -0.025432 0.023097
v -0.010630 -0.030053 0.015909
v -0.005419 -0.032898 0.008111
v -0.032664 -0.002993 0.032664
v -0.029397 -0.011637 0.029397
v -0.025000 -0.019214 0.025000
v -0.019642 -0.025432 0.019642
v -0.013530 -0.030053 0.013530
v -0.006897 -0.032898 0.006898
v -0.038409 -0.002993 0.025664
v -0.034567 -0.011637 0.023097
v -0.029397 -0.019214 0.019642
v -0.023097 -0.025432 0.015433
v -0.015909 -0.030053 0.010630
v -0.008111 -0.032898 0.005419
v -0.042678 -0.002993 0.017678
v -0.038409 -0.011637 0.015909
v -0.032664 -0.019214 0.013530
v -0.025664 -0.025432 0.010630
v -0.017678 -0.030053 0.007322
v -0.009012 -0.032898 0.003733
v -0.045306 -0.002993 0.009012
v -0.040775 -0.011637 0.008111
v -0.034676 -0.019214 0.006897
v -0.027245 -0.025432 0.005419
v -0.018767 -0.030053 0.003733
v -0.009567 -0.032898 0.001903
v -0.046194 -0.002993 0.000000
v -0.041573 -0.011637 0.000000
v -0.035355 -0.019214 0.000000
v -0.027779 -0.025432 0.000000
v -0.019134 -0.030053 0.000000
v -0.009755 -0.032898 0.000000
v -0.045306 -0.002993 -0.009012
v -0.040775 -0.011637 -0.008111
v -0.034676 -0.019214 -0.006897
v -0.027245 -0.025432 -0.005419
v -0.018767 -0.030053 -0.003733
v -0.009567 -0.032898 -0.001903
v -0.042678 -0.002993 -0.017678
v -0.038409 -0.011637 -0.015909
v -0.032664 -0.019214 -0.013530
v -0.025664 -0.025432 -0.010630
v -0.017678 -0.030053 -0.007322
v -0.009012 -0.032898 -0.003733
v -0.038409 -0.002993 -0.025664
v -0.034567 -0.011637 -0.023097
v -0.029397 -0.019214 -0.019642
v -0.023097 -0.025432 -0.015433
v -0.015909 -0.030053 -0.010630
v -0.008111 -0.032898 -0.005419
v -0.032664 -0.002993 -0.032664
v -0.029397 -0.011637 -0.029397
v -0.025000 -0.019214 -0.025000
v -0.019642 -0.025432 -0.019642
v -0.013530 -0.030053 -0.013530
v -0.006897 -0.032898 -0.006897
v -0.025664 -0.002993 -0.038409
v -0.023097 -0.011637 -0.034567
v -0.019642 -0.019214 -0.029397
v -0.015433 -0.025432 -0.023097
v -0.010630 -0.030053 -0.015909
v -0.005419 -0.032898 -0.008111
v -0.017678 -0.002993 -0.042678
v -0.015909 -0.011637 -0.038409
v -0.013530 -0.019214 -0.032664
v -0.010630 -0.025432 -0.025664
v -0.007322 -0.030053 -0.017678
v -0.003733 -0.032898 -0.009012
v -0.009012 -0.002993 -0.045306
v -0.008111 -0.011637 -0.040775
v -0.006897 -0.019214 -0.034676
v -0.005419 -0.025432 -0.027245
v -0.003733 -0.030053 -0.018766
v -0.001903 -0.032898 -0.009567
v 0.000000 -0.002993 -0.046194
v 0.000000 -0.011637 -0.041573
v 0.000000 -0.019214 -0.035355
v 0.000000 -0.030053 -0.019134
v 0.000000 -0.032898 -0.009754
v -0.000000 0.000000 -0.050000
v -0.000000 -0.009755 -0.049039
v -0.000000 -0.041573 -0.027779
v 0.009755 0.000000 -0.049039
v 0.009567 -0.009755 -0.048097
v 0.009012 -0.019134 -0.045306
v 0.008111 -0.027779 -0.040775
v 0.006897 -0.035355 -0.034676
v 0.005419 -0.041573 -0.027245
v 0.003733 -0.046194 -0.018767
v 0.001903 -0.049039 -0.009567
v 0.019134 0.000000 -0.046194
v 0.018767 -0.009755 -0.045306
v 0.017678 -0.019134 -0.042678
v 0.015909 -0.027779 -0.038409
v 0.013530 -0.035355 -0.032664
v 0.010630 -0.041573 -0.025664
v 0.007322 -0.046194 -0.017678
v 0.003733 -0.049039 -0.009012
v 0.027779 0.000000 -0.041573
v 0.027245 -0.009755 -0.040775
v 0.025664 -0.019134 -0.038409
v 0.023097 -0.027779 -0.034567
v 0.019642 -0.035355 -0.029397
v 0.015433 -0.041573 -0.023097
v 0.010630 -0.046194 -0.015909
v 0.005419 -0.049039 -0.008111
v 0.035355 0.000000 -0.035355
v 0.034676 -0.009755 -0.034676
v 0.032664 -0.019134 -0.032664
v 0.029397 -0.027779 -0.029397
v 0.025000 -0.035355 -0.025000
v 0.019642 -0.041573 -0.019642
v 0.013530 -0.046194 -0.013530
v 0.006897 -0.049039 -0.006897
v 0.041573 0.000000 -0.027779
v 0.040775 -0.009755 -0.027245
v 0.038409 -0.019134 -0.025664
v 0.034567 -0.027779 -0.023097
v 0.029397 -0.035355 -0.019642
v 0.023097 -0.041573 -0.015433
v 0.015909 -0.046194 -0.010630
v 0.008111 -0.049039 -0.005419
v 0.046194 0.000000 -0.019134
v 0.045306 -0.009755 -0.018767
v 0.042678 -0.019134 -0.017678
v 0.038409 -0.027779 -0.015909
v 0.032664 -0.035355 -0.013530
v 0.025664 -0.041573 -0.010630
v 0.017678 -0.046194 -0.007322
v 0.009012 -0.049039 -0.003733
v 0.049039 0.000000 -0.009755
v 0.048097 -0.009755 -0.009567
v 0.045306 -0.019134 -0.009012
v 0.040775 -0.027779 -0.008111
v 0.034676 -0.035355 -0.006897
v 0.027245 -0.041573 -0.005419
v 0.018767 -0.046194 -0.003733
v 0.009567 -0.049039 -0.001903
v 0.050000 0.000000 0.000000
v 0.049039 -0.009755 0.000000
v 0.046194 -0.019134 0.000000
v 0.041573 -0.027779 0.000000
v 0.035355 -0.035355 0.000000
v 0.027779 -0.041573 0.000000
v 0.019134 -0.046194 0.000000
v 0.009755 -0.049039 0.000000
v 0.049039 0.000000 0.009755
v 0.048097 -0.009755 0.009567
v 0.045306 -0.019134 0.009012
v 0.040775 -0.027779 0.008111
v 0.034676 -0.035355 0.006897
v 0.027245 -0.041573 0.005419
v 0.018767 -0.046194 0.003733
v 0.009567 -0.049039 0.001903
v 0.046194 0.000000 0.019134
v 0.045306 -0.009755 0.018767
v 0.042678 -0.019134 0.017678
v 0.038409 -0.027779 0.015909
v 0.032664 -0.035355 0.013530
v 0.025664 -0.041573 0.010630
v 0.017678 -0.046194 0.007322
v 0.009012 -0.049039 0.003733
v 0.041573 0.000000 0.027779
v 0.040775 -0.009755 0.027245
v 0.038409 -0.019134 0.025664
v 0.034567 -0.027779 0.023097
v 0.029397 -0.035355 0.019642
v 0.023097 -0.041573 0.015433
v 0.015909 -0.046194 0.010630
v 0.008111 -0.049039 0.005419
v 0.035355 0.000000 0.035355
v 0.034676 -0.009755 0.034676
v 0.032664 -0.019134 0.032664
v 0.029397 -0.027779 0.029397
v 0.025000 -0.035355 0.025000
v 0.019642 -0.041573 0.019642
v 0.013530 -0.046194 0.013530
v 0.006897 -0.049039 0.006897
v 0.027779 0.000000 0.041574
v 0.027245 -0.009755 0.040775
v 0.025664 -0.019134 0.038409
v 0.023097 -0.027779 0.034567
v 0.019642 -0.035355 0.029397
v 0.015433 -0.041573 0.023097
v 0.010630 -0.046194 0.015909
v 0.005419 -0.049039 0.008111
v -0.000000 -0.050000 0.000000
v 0.019134 0.000000 0.046194
v 0.018767 -0.009755 0.045306
v 0.017678 -0.019134 0.042678
v 0.015909 -0.027779 0.038409
v 0.013530 -0.035355 0.032664
v 0.010630 -0.041573 0.025664
v 0.007322 -0.046194 0.017678
v 0.003733 -0.049039 0.009012
v 0.009755 0.000000 0.049039
v 0.009567 -0.009755 0.048097
v 0.009012 -0.019134 0.045306
v 0.008111 -0.027779 0.040775
v 0.006897 -0.035355 0.034676
v 0.005419 -0.041573 0.027245
v 0.003733 -0.046194 0.018767
v 0.001903 -0.049039 0.009567
v -0.000000 0.000000 0.050000
v -0.000000 -0.009755 0.049039
v -0.000000 -0.019134 0.046194
v -0.000000 -0.027779 0.041573
v -0.000000 -0.035355 0.035355
v -0.000000 -0.041573 0.027779
v -0.000000 -0.046194 0.019134
v -0.000000 -0.049039 0.009755
v -0.009755 0.000000 0.049039
v -0.009567 -0.009755 0.048097
v -0.009012 -0.019134 0.045306
v -0.008111 -0.027779 0.040775
v -0.006897 -0.035355 0.034676
v -0.005419 -0.041573 0.027245
v -0.003733 -0.046194 0.018767
v -0.001903 -0.049039 0.009567
v -0.019134 0.000000 0.046194
v -0.018767 -0.009755 0.045306
v -0.017678 -0.019134 0.042678
v -0.015909 -0.027779 0.038409
v -0.013530 -0.035355 0.032664
v -0.010630 -0.041573 0.025664
v -0.007322 -0.046194 0.017678
v -0.003733 -0.049039 0.009012
v -0.027779 0.000000 0.041573
v -0.027245 -0.009755 0.040775
v -0.025664 -0.019134 0.038409
v -0.023097 -0.027779 0.034567
v -0.019642 -0.035355 0.029397
v -0.015433 -0.041573 0.023097
v -0.010630 -0.046194 0.015909
v -0.005419 -0.049039 0.008111
v -0.035355 0.000000 0.035355
v -0.034676 -0.009755 0.034676
v -0.032664 -0.019134 0.032664
v -0.029397 -0.027779 0.029397
v -0.025000 -0.035355 0.025000
v -0.019642 -0.041573 0.019642
v -0.013530 -0.046194 0.013530
v -0.006897 -0.049039 0.006897
v -0.041573 0.000000 0.027779
v -0.040775 -0.009755 0.027245
v -0.038409 -0.019134 0.025664
v -0.034567 -0.027779 0.023097
v -0.029397 -0.035355 0.019642
v -0.023097 -0.041573 0.015433
v -0.015909 -0.046194 0.010630
v -0.008111 -0.049039 0.005419
v -0.046194 0.000000 0.019134
v -0.045306 -0.009755 0.018767
v -0.042678 -0.019134 0.017678
v -0.038409 -0.027779 0.015909
v -0.032664 -0.035355 0.013530
v -0.025664 -0.041573 0.010630
v -0.017678 -0.046194 0.007322
v -0.009012 -0.049039 0.003733
v -0.049039 0.000000 0.009755
v -0.048097 -0.009755 0.009567
v -0.045306 -0.019134 0.009012
v -0.040775 -0.027779 0.008111
v -0.034676 -0.035355 0.006897
v -0.027245 -0.041573 0.005419
v -0.018767 -0.046194 0.003733
v -0.009567 -0.049039 0.001903
v -0.050000 0.000000 -0.000000
v -0.049039 -0.009755 -0.000000
v -0.046194 -0.019134 0.000000
v -0.041573 -0.027779 -0.000000
v -0.035355 -0.035355 -0.000000
v -0.027779 -0.041573 0.000000
v -0.019134 -0.046194 0.000000
v -0.009755 -0.049039 0.000000
v -0.049039 0.000000 -0.009755
v -0.048097 -0.009755 -0.009567
v -0.045306 -0.019134 -0.009012
v -0.040775 -0.027779 -0.008111
v -0.034676 -0.035355 -0.006897
v -0.027245 -0.041573 -0.005419
v -0.018767 -0.046194 -0.003733
v -0.009567 -0.049039 -0.001903
v -0.046194 0.000000 -0.019134
v -0.045306 -0.009755 -0.018767
v -0.042678 -0.019134 -0.017678
v -0.038409 -0.027779 -0.015909
v -0.032664 -0.035355 -0.013530
v -0.025664 -0.041573 -0.010630
v -0.017678 -0.046194 -0.007322
v -0.009012 -0.049039 -0.003733
v -0.041573 0.000000 -0.027779
v -0.040775 -0.009755 -0.027245
v -0.038409 -0.019134 -0.025664
v -0.034567 -0.027779 -0.023097
v -0.029397 -0.035355 -0.019642
v -0.023097 -0.041573 -0.015433
v -0.015909 -0.046194 -0.010630
v -0.008111 -0.049039 -0.005419
v -0.035355 0.000000 -0.035355
v -0.034676 -0.009755 -0.034676
v -0.032664 -0.019134 -0.032664
v -0.029397 -0.027779 -0.029397
v -0.025000 -0.035355 -0.025000
v -0.019642 -0.041573 -0.019642
v -0.013530 -0.046194 -0.013530
v -0.006897 -0.049039 -0.006897
v -0.027779 0.000000 -0.041573
v -0.027245 -0.009755 -0.040775
v -0.025664 -0.019134 -0.038409
v -0.023097 -0.027779 -0.034567
v -0.019642 -0.035355 -0.029397
v -0.015433 -0.041573 -0.023097
v -0.010630 -0.046194 -0.015909
v -0.005419 -0.049039 -0.008111
v -0.019134 0.000000 -0.046194
v -0.018767 -0.009755 -0.045306
v -0.017678 -0.019134 -0.042678
v -0.015909 -0.027779 -0.038409
v -0.013530 -0.035355 -0.032664
v -0.010630 -0.041573 -0.025664
v -0.007322 -0.046194 -0.017678
v -0.003733 -0.049039 -0.009012
v -0.009755 0.000000 -0.049039
v -0.009567 -0.009755 -0.048097
v -0.009012 -0.019134 -0.045306
v -0.008111 -0.027779 -0.040775
v -0.006897 -0.035355 -0.034676
v -0.005419 -0.041573 -0.027245
v -0.003733 -0.046194 -0.018767
v -0.001903 -0.049039 -0.009567
v -0.000000 -0.019134 -0.046194
v 0.000000 -0.027779 -0.041573
v 0.000000 -0.035355 -0.035355
v -0.000000 -0.046194 -0.019134
v -0.000000 -0.049039 -0.009755
v 0.047102 0.000000 0.000000
v 0.046197 0.000000 0.009189
v 0.043516 0.000000 0.018025
v 0.039164 0.000000 0.026168
v 0.033306 0.000000 0.033306
v 0.026168 0.000000 0.039164
v 0.018025 0.000000 0.043516
v 0.009189 0.000000 0.046197
v 0.000000 0.000000 0.047102
v -0.009189 0.000000 0.046197
v -0.018025 0.000000 0.043516
v -0.026168 0.000000 0.039164
v -0.033306 0.000000 0.033306
v -0.043516 0.000000 0.018025
v -0.039164 0.000000 0.026168
v -0.047102 0.000000 0.000000
v -0.046197 0.000000 0.009189
v 0.046197 0.000000 -0.009189
v -0.046197 0.000000 -0.009189
v 0.043516 0.000000 -0.018025
v -0.043516 0.000000 -0.018025
v 0.039164 0.000000 -0.026168
v -0.039164 0.000000 -0.026168
v 0.033306 0.000000 -0.033306
v -0.033306 0.000000 -0.033306
v 0.026168 0.000000 -0.039164
v -0.026168 0.000000 -0.039164
v 0.018025 0.000000 -0.043516
v 0.009189 0.000000 -0.046197
v -0.009189 0.000000 -0.046197
v 0.000000 0.000000 -0.047102
v -0.018025 0.000000 -0.043516
v 0.000000 0.193689 -0.050000
v 0.009755 0.193689 -0.049039
v 0.019134 0.193689 -0.046194
v 0.027779 0.193689 -0.041574
v 0.035355 0.193689 -0.035355
v 0.041574 0.193689 -0.027779
v 0.046194 0.193689 -0.019134
v 0.049039 0.193689 -0.009755
v 0.050000 0.193689 0.000000
v 0.049039 0.193689 0.009755
v 0.046194 0.193689 0.019134
v 0.041573 0.193689 0.027779
v 0.035355 0.193689 0.035355
v 0.027779 0.193689 0.041573
v 0.019134 0.193689 0.046194
v 0.009755 0.193689 0.049039
v -0.000000 0.193689 0.050000
v -0.009755 0.193689 0.049039
v -0.019134 0.193689 0.046194
v -0.027779 0.193689 0.041573
v -0.035355 0.193689 0.035355
v -0.041573 0.193689 0.027779
v -0.046194 0.193689 0.019134
v -0.049039 0.193689 0.009755
v -0.050000 0.193689 -0.000000
v -0.049039 0.193689 -0.009755
v -0.046194 0.193689 -0.019134
v -0.041573 0.193689 -0.027779
v -0.035355 0.193689 -0.035355
v -0.027778 0.193689 -0.041573
v -0.019134 0.193689 -0.046194
v -0.009754 0.193689 -0.049039
v 0.047102 0.193689 0.000000
v 0.046197 0.193689 0.009189
v 0.043516 0.193689 0.018025
v 0.039164 0.193689 0.026168
v 0.033306 0.193689 0.033306
v 0.026168 0.193689 0.039164
v 0.018025 0.193689 0.043516
v 0.009189 0.193689 0.046197
v 0.000000 0.193689 0.047102
v -0.009189 0.193689 0.046197
v -0.018025 0.193689 0.043516
v -0.026168 0.193689 0.039164
v -0.033306 0.193689 0.033306
v -0.043516 0.193689 0.018025
v -0.039164 0.193689 0.026168
v -0.047102 0.193689 0.000000
v -0.046197 0.193689 0.009189
v 0.046197 0.193689 -0.009189
v -0.046197 0.193689 -0.009189
v 0.043516 0.193689 -0.018025
v -0.043516 0.193689 -0.018025
v 0.039164 0.193689 -0.026168
v -0.039164 0.193689 -0.026168
v 0.033306 0.193689 -0.033306
v -0.033306 0.193689 -0.033306
v 0.026168 0.193689 -0.039164
v -0.026168 0.193689 -0.039164
v 0.018025 0.193689 -0.043516
v 0.009189 0.193689 -0.046197
v -0.009189 0.193689 -0.046197
v 0.000000 0.193689 -0.047102
v -0.018025 0.193689 -0.043516
v -0.000000 0.408629 -0.050000
v 0.009754 0.408629 -0.049039
v 0.019134 0.408629 -0.046194
v 0.027778 0.408629 -0.041574
v 0.035355 0.408629 -0.035355
v 0.041573 0.408629 -0.027779
v 0.046194 0.408629 -0.019134
v 0.049039 0.408629 -0.009755
v 0.050000 0.408629 0.000000
v 0.049039 0.408629 0.009755
v 0.046194 0.408629 0.019134
v 0.041573 0.408629 0.027779
v 0.035355 0.408629 0.035355
v 0.027778 0.408629 0.041573
v 0.019134 0.408629 0.046194
v 0.009754 0.408629 0.049039
v -0.000000 0.408629 0.050000
v -0.009755 0.408629 0.049039
v -0.019134 0.408629 0.046194
v -0.027779 0.408629 0.041573
v -0.035356 0.408629 0.035355
v -0.041574 0.408629 0.027779
v -0.046194 0.408629 0.019134
v -0.049039 0.408629 0.009755
v -0.050000 0.408629 -0.000000
v -0.049039 0.408629 -0.009755
v -0.046194 0.408629 -0.019134
v -0.041574 0.408629 -0.027779
v -0.035355 0.408629 -0.035355
v -0.027779 0.408629 -0.041573
v -0.019134 0.408629 -0.046194
v -0.009755 0.408629 -0.049039
v 0.047102 0.408629 0.000000
v 0.046197 0.408629 0.009189
v 0.043516 0.408629 0.018025
v 0.039164 0.408629 0.026168
v 0.033306 0.408629 0.033306
v 0.026168 0.408629 0.039164
v 0.018025 0.408629 0.043516
v 0.009189 0.408629 0.046197
v -0.000000 0.408629 0.047102
v -0.009189 0.408629 0.046197
v -0.018025 0.408629 0.043516
v -0.026169 0.408629 0.039164
v -0.033306 0.408629 0.033306
v -0.043517 0.408629 0.018025
v -0.039164 0.408629 0.026168
v -0.047102 0.408629 0.000000
v -0.046197 0.408629 0.009189
v 0.046197 0.408629 -0.009189
v -0.046197 0.408629 -0.009189
v 0.043516 0.408629 -0.018025
v -0.043517 0.408629 -0.018025
v 0.039164 0.408629 -0.026168
v -0.039164 0.408629 -0.026168
v 0.033306 0.408629 -0.033306
v -0.033306 0.408629 -0.033306
v 0.026168 0.408629 -0.039164
v -0.026169 0.408629 -0.039164
v 0.018025 0.408629 -0.043516
v 0.009189 0.408629 -0.046197
v -0.009189 0.408629 -0.046197
v -0.000000 0.408629 -0.047102
v -0.018025 0.408629 -0.043516
v -0.000000 0.408629 -0.050000
v 0.009754 0.408629 -0.049039
v 0.019134 0.408629 -0.046194
v 0.027778 0.408629 -0.041574
v 0.035355 0.408629 -0.035355
v 0.041573 0.408629 -0.027779
v 0.046194 0.408629 -0.019134
v 0.049039 0.408629 -0.009755
v 0.050000 0.408629 0.000000
v 0.049039 0.408629 0.009755
v 0.046194 0.408629 0.019134
v 0.041573 0.408629 0.027779
v 0.035355 0.408629 0.035355
v 0.027778 0.408629 0.041573
v 0.019134 0.408629 0.046194
v 0.009754 0.408629 0.049039
v -0.000000 0.408629 0.050000
v -0.009755 0.408629 0.049039
v -0.019134 0.408629 0.046194
v -0.027779 0.408629 0.041573
v -0.035356 0.408629 0.035355
v -0.041574 0.408629 0.027779
v -0.046194 0.408629 0.019134
v -0.049039 0.408629 0.009755
v -0.050000 0.408629 -0.000000
v -0.049039 0.408629 -0.009755
v -0.046194 0.408629 -0.019134
v -0.041574 0.408629 -0.027779
v -0.035355 0.408629 -0.035355
v -0.027779 0.408629 -0.041573
v -0.019134 0.408629 -0.046194
v -0.009755 0.408629 -0.049039
vt 0.734375 0.000000
vt 0.718750 0.062500
vt 0.750000 0.062500
vt 0.750000 0.375000
vt 0.718750 0.375000
vt 0.718750 0.394943
vt 0.750000 0.394943
vt 0.750000 0.312500
vt 0.718750 0.312500
vt 0.750000 0.250000
vt 0.718750 0.250000
vt 0.750000 0.187500
vt 0.718750 0.187500
vt 0.750000 0.125000
vt 0.718750 0.125000
vt 0.687500 0.062500
vt 0.687500 0.125000
vt 0.703125 0.000000
vt 0.687500 0.375000
vt 0.687500 0.394943
vt 0.687500 0.312500
vt 0.687500 0.250000
vt 0.687500 0.187500
vt 0.656250 0.250000
vt 0.656250 0.312500
vt 0.656250 0.187500
vt 0.656250 0.125000
vt 0.656250 0.062500
vt 0.671875 0.000000
vt 0.656250 0.375000
vt 0.656250 0.394943
vt 0.640625 0.000000
vt 0.625000 0.062500
vt 0.625000 0.375000
vt 0.625000 0.394943
vt 0.625000 0.312500
vt 0.625000 0.250000
vt 0.625000 0.187500
vt 0.625000 0.125000
vt 0.593750 0.250000
vt 0.593750 0.312500
vt 0.593750 0.187500
vt 0.593750 0.125000
vt 0.593750 0.062500
vt 0.609375 0.000000
vt 0.593750 0.375000
vt 0.593750 0.394943
vt 0.578125 0.000000
vt 0.562500 0.062500
vt 0.562500 0.375000
vt 0.562500 0.394943
vt 0.562500 0.312500
vt 0.562500 0.250000
vt 0.562500 0.187500
vt 0.562500 0.125000
vt 0.531250 0.187500
vt 0.531250 0.250000
vt 0.531250 0.125000
vt 0.531250 0.062500
vt 0.546875 0.000000
vt 0.531250 0.375000
vt 0.531250 0.394943
vt 0.531250 0.312500
vt 0.500000 0.375000
vt 0.500000 0.394943
vt 0.500000 0.312500
vt 0.500000 0.250000
vt 0.500000 0.187500
vt 0.500000 0.125000
vt 0.500000 0.062500
vt 0.515625 0.000000
vt 0.468750 0.125000
vt 0.468750 0.187500
vt 0.468750 0.062500
vt 0.484375 0.000000
vt 0.468750 0.375000
vt 0.468750 0.394943
vt 0.468750 0.312500
vt 0.468750 0.250000
vt 0.437500 0.375000
vt 0.437500 0.394943
vt 0.437500 0.312500
vt 0.437500 0.250000
vt 0.437500 0.187500
vt 0.437500 0.125000
vt 0.437500 0.062500
vt 0.453125 0.000000
vt 0.406250 0.125000
vt 0.406250 0.187500
vt 0.406250 0.062500
vt 0.421875 0.000000
vt 0.406250 0.375000
vt 0.406250 0.394943
vt 0.406250 0.312500
vt 0.406250 0.250000
vt 0.375000 0.312500
vt 0.375000 0.375000
vt 0.375000 0.250000
vt 0.375000 0.187500
vt 0.375000 0.125000
vt 0.375000 0.062500
vt 0.390625 0.000000
vt 0.375000 0.394943
vt 0.343750 0.062500
vt 0.343750 0.125000
vt 0.359375 0.000000
vt 0.343750 0.375000
vt 0.343750 0.394943
vt 0.343750 0.312500
vt 0.343750 0.250000
vt 0.343750 0.187500
vt 0.312500 0.312500
vt 0.312500 0.375000
vt 0.312500 0.250000
vt 0.312500 0.187500
vt 0.312500 0.125000
vt 0.312500 0.062500
vt 0.328125 0.000000
vt 0.312500 0.394943
vt 0.281250 0.062500
vt 0.281250 0.125000
vt 0.296875 0.000000
vt 0.281250 0.375000
vt 0.281250 0.394943
vt 0.281250 0.312500
vt 0.281250 0.250000
vt 0.281250 0.187500
vt 0.250000 0.250000
vt 0.250000 0.312500
vt 0.250000 0.187500
vt 0.250000 0.125000
vt 0.250000 0.062500
vt 0.265625 0.000000
vt 0.250000 0.375000
vt 0.250000 0.394943
vt 0.234375 0.000000
vt 0.218750 0.062500
vt 0.218750 0.375000
vt 0.218750 0.394943
vt 0.218750 0.312500
vt 0.218750 0.250000
vt 0.218750 0.187500
vt 0.218750 0.125000
vt 0.187500 0.187500
vt 0.187500 0.250000
vt 0.187500 0.125000
vt 0.187500 0.062500
vt 0.203125 0.000000
vt 0.187500 0.375000
vt 0.187500 0.394943
vt 0.187500 0.312500
vt 0.156250 0.375000
vt 0.156250 0.394943
vt 0.156250 0.312500
vt 0.156250 0.250000
vt 0.156250 0.187500
vt 0.156250 0.125000
vt 0.156250 0.062500
vt 0.171875 0.000000
vt 0.125000 0.187500
vt 0.125000 0.250000
vt 0.125000 0.125000
vt 0.125000 0.062500
vt 0.140625 0.000000
vt 0.125000 0.375000
vt 0.125000 0.394943
vt 0.125000 0.312500
vt 0.093750 0.375000
vt 0.093750 0.394943
vt 0.093750 0.312500
vt 0.093750 0.250000
vt 0.093750 0.187500
vt 0.093750 0.125000
vt 0.093750 0.062500
vt 0.109375 0.000000
vt 0.062500 0.125000
vt 0.062500 0.187500
vt 0.062500 0.062500
vt 0.078125 0.000000
vt 0.062500 0.375000
vt 0.062500 0.394943
vt 0.062500 0.312500
vt 0.062500 0.250000
vt 0.031250 0.375000
vt 0.031250 0.394943
vt 0.031250 0.312500
vt 0.031250 0.250000
vt 0.031250 0.187500
vt 0.031250 0.125000
vt 0.031250 0.062500
vt 0.046875 0.000000
vt 0.000000 0.125000
vt 0.000000 0.187500
vt 0.000000 0.062500
vt 0.015625 0.000000
vt 0.000000 0.375000
vt 0.000000 0.394943
vt 0.000000 0.312500
vt 0.000000 0.250000
vt 1.000000 0.312500
vt 0.968750 0.312500
vt 0.968750 0.375000
vt 1.000000 0.375000
vt 1.000000 0.250000
vt 0.968750 0.250000
vt 1.000000 0.187500
vt 0.968750 0.187500
vt 1.000000 0.125000
vt 0.968750 0.125000
vt 1.000000 0.062500
vt 0.968750 0.062500
vt 0.984375 0.000000
vt 0.968750 0.394943
vt 1.000000 0.394943
vt 0.937500 0.062500
vt 0.937500 0.125000
vt 0.953125 0.000000
vt 0.937500 0.375000
vt 0.937500 0.394943
vt 0.937500 0.312500
vt 0.937500 0.250000
vt 0.937500 0.187500
vt 0.906250 0.250000
vt 0.906250 0.312500
vt 0.906250 0.187500
vt 0.906250 0.125000
vt 0.906250 0.062500
vt 0.921875 0.000000
vt 0.906250 0.375000
vt 0.906250 0.394943
vt 0.890625 0.000000
vt 0.875000 0.062500
vt 0.875000 0.375000
vt 0.875000 0.394943
vt 0.875000 0.312500
vt 0.875000 0.250000
vt 0.875000 0.187500
vt 0.875000 0.125000
vt 0.843750 0.250000
vt 0.843750 0.312500
vt 0.843750 0.187500
vt 0.843750 0.125000
vt 0.843750 0.062500
vt 0.859375 0.000000
vt 0.843750 0.375000
vt 0.843750 0.394943
vt 0.828125 0.000000
vt 0.812500 0.062500
vt 0.812500 0.375000
vt 0.812500 0.394943
vt 0.812500 0.312500
vt 0.812500 0.250000
vt 0.812500 0.187500
vt 0.812500 0.125000
vt 0.781250 0.187500
vt 0.781250 0.250000
vt 0.781250 0.125000
vt 0.781250 0.062500
vt 0.796875 0.000000
vt 0.781250 0.375000
vt 0.781250 0.394943
vt 0.781250 0.312500
vt 0.765625 0.000000
vt 0.750000 0.375000
vt 0.750000 0.437500
vt 0.718750 0.437500
vt 0.718750 0.375000
vt 0.750000 0.312500
vt 0.718750 0.312500
vt 0.750000 0.250000
vt 0.718750 0.250000
vt 0.750000 0.187500
vt 0.718750 0.187500
vt 0.750000 0.125000
vt 0.718750 0.125000
vt 0.750000 0.062500
vt 0.718750 0.062500
vt 0.734375 0.000000
vt 0.750000 0.500000
vt 0.718750 0.500000
vt 0.687500 0.500000
vt 0.687500 0.437500
vt 0.687500 0.375000
vt 0.687500 0.312500
vt 0.687500 0.250000
vt 0.687500 0.187500
vt 0.687500 0.125000
vt 0.687500 0.062500
vt 0.703125 0.000000
vt 0.656250 0.250000
vt 0.656250 0.187500
vt 0.656250 0.125000
vt 0.656250 0.062500
vt 0.671875 0.000000
vt 0.656250 0.500000
vt 0.656250 0.437500
vt 0.656250 0.375000
vt 0.656250 0.312500
vt 0.625000 0.437500
vt 0.625000 0.375000
vt 0.625000 0.312500
vt 0.625000 0.250000
vt 0.625000 0.187500
vt 0.625000 0.125000
vt 0.625000 0.062500
vt 0.640625 0.000000
vt 0.625000 0.500000
vt 0.593750 0.187500
vt 0.593750 0.125000
vt 0.593750 0.062500
vt 0.609375 0.000000
vt 0.593750 0.500000
vt 0.593750 0.437500
vt 0.593750 0.375000
vt 0.593750 0.312500
vt 0.593750 0.250000
vt 0.562500 0.437500
vt 0.562500 0.375000
vt 0.562500 0.312500
vt 0.562500 0.250000
vt 0.562500 0.187500
vt 0.562500 0.125000
vt 0.562500 0.062500
vt 0.578125 0.000000
vt 0.562500 0.500000
vt 0.531250 0.187500
vt 0.531250 0.125000
vt 0.531250 0.062500
vt 0.546875 0.000000
vt 0.531250 0.500000
vt 0.531250 0.437500
vt 0.531250 0.375000
vt 0.531250 0.312500
vt 0.531250 0.250000
vt 0.500000 0.375000
vt 0.500000 0.312500
vt 0.500000 0.250000
vt 0.500000 0.187500
vt 0.500000 0.125000
vt 0.500000 0.062500
vt 0.515625 0.000000
vt 0.500000 0.500000
vt 0.500000 0.437500
vt 0.468750 0.125000
vt 0.468750 0.062500
vt 0.484375 0.000000
vt 0.468750 0.500000
vt 0.468750 0.437500
vt 0.468750 0.375000
vt 0.468750 0.312500
vt 0.468750 0.250000
vt 0.468750 0.187500
vt 0.437500 0.312500
vt 0.437500 0.250000
vt 0.437500 0.187500
vt 0.437500 0.125000
vt 0.437500 0.062500
vt 0.453125 0.000000
vt 0.437500 0.500000
vt 0.437500 0.437500
vt 0.437500 0.375000
vt 0.421875 0.000000
vt 0.406250 0.062500
vt 0.406250 0.500000
vt 0.406250 0.437500
vt 0.406250 0.375000
vt 0.406250 0.312500
vt 0.406250 0.250000
vt 0.406250 0.187500
vt 0.406250 0.125000
vt 0.375000 0.312500
vt 0.375000 0.250000
vt 0.375000 0.187500
vt 0.375000 0.125000
vt 0.375000 0.062500
vt 0.390625 0.000000
vt 0.375000 0.500000
vt 0.375000 0.437500
vt 0.375000 0.375000
vt 0.359375 0.000000
vt 0.343750 0.062500
vt 0.343750 0.500000
vt 0.343750 0.437500
vt 0.343750 0.375000
vt 0.343750 0.312500
vt 0.343750 0.250000
vt 0.343750 0.187500
vt 0.343750 0.125000
vt 0.312500 0.250000
vt 0.312500 0.187500
vt 0.312500 0.125000
vt 0.312500 0.062500
vt 0.328125 0.000000
vt 0.312500 0.500000
vt 0.312500 0.437500
vt 0.312500 0.375000
vt 0.312500 0.312500
vt 0.281250 0.500000
vt 0.281250 0.437500
vt 0.281250 0.375000
vt 0.281250 0.312500
vt 0.281250 0.250000
vt 0.281250 0.187500
vt 0.281250 0.125000
vt 0.281250 0.062500
vt 0.296875 0.000000
vt 0.250000 0.250000
vt 0.250000 0.187500
vt 0.250000 0.125000
vt 0.250000 0.062500
vt 0.265625 0.000000
vt 0.250000 0.500000
vt 0.250000 0.437500
vt 0.250000 0.375000
vt 0.250000 0.312500
vt 0.218750 0.437500
vt 0.218750 0.375000
vt 0.218750 0.312500
vt 0.218750 0.250000
vt 0.218750 0.187500
vt 0.218750 0.125000
vt 0.218750 0.062500
vt 0.234375 0.000000
vt 0.218750 0.500000
vt 0.187500 0.187500
vt 0.187500 0.125000
vt 0.187500 0.062500
vt 0.203125 0.000000
vt 0.187500 0.500000
vt 0.187500 0.437500
vt 0.187500 0.375000
vt 0.187500 0.312500
vt 0.187500 0.250000
vt 0.156250 0.375000
vt 0.156250 0.312500
vt 0.156250 0.250000
vt 0.156250 0.187500
vt 0.156250 0.125000
vt 0.156250 0.062500
vt 0.171875 0.000000
vt 0.156250 0.500000
vt 0.156250 0.437500
vt 0.125000 0.125000
vt 0.125000 0.062500
vt 0.140625 0.000000
vt 0.125000 0.500000
vt 0.125000 0.437500
vt 0.125000 0.375000
vt 0.125000 0.312500
vt 0.125000 0.250000
vt 0.125000 0.187500
vt 0.093750 0.375000
vt 0.093750 0.312500
vt 0.093750 0.250000
vt 0.093750 0.187500
vt 0.093750 0.125000
vt 0.093750 0.062500
vt 0.109375 0.000000
vt 0.093750 0.500000
vt 0.093750 0.437500
vt 0.062500 0.125000
vt 0.062500 0.062500
vt 0.078125 0.000000
vt 0.062500 0.500000
vt 0.062500 0.437500
vt 0.062500 0.375000
vt 0.062500 0.312500
vt 0.062500 0.250000
vt 0.062500 0.187500
vt 0.031250 0.312500
vt 0.031250 0.250000
vt 0.031250 0.187500
vt 0.031250 0.125000
vt 0.031250 0.062500
vt 0.046875 0.000000
vt 0.031250 0.500000
vt 0.031250 0.437500
vt 0.031250 0.375000
vt 0.015625 0.000000
vt 0.000000 0.062500
vt 0.000000 0.500000
vt 0.000000 0.437500
vt 0.000000 0.375000
vt 0.000000 0.312500
vt 0.000000 0.250000
vt 0.000000 0.187500
vt 0.000000 0.125000
vt 1.000000 0.250000
vt 1.000000 0.312500
vt 0.968750 0.312500
vt 0.968750 0.250000
vt 1.000000 0.187500
vt 0.968750 0.187500
vt 1.000000 0.125000
vt 0.968750 0.125000
vt 1.000000 0.062500
vt 0.968750 0.062500
vt 0.984375 0.000000
vt 1.000000 0.437500
vt 1.000000 0.500000
vt 0.968750 0.500000
vt 0.968750 0.437500
vt 1.000000 0.375000
vt 0.968750 0.375000
vt 0.953125 0.000000
vt 0.937500 0.062500
vt 0.937500 0.500000
vt 0.937500 0.437500
vt 0.937500 0.375000
vt 0.937500 0.312500
vt 0.937500 0.250000
vt 0.937500 0.187500
vt 0.937500 0.125000
vt 0.906250 0.250000
vt 0.906250 0.187500
vt 0.906250 0.125000
vt 0.906250 0.062500
vt 0.921875 0.000000
vt 0.906250 0.500000
vt 0.906250 0.437500
vt 0.906250 0.375000
vt 0.906250 0.312500
vt 0.875000 0.437500
vt 0.875000 0.375000
vt 0.875000 0.312500
vt 0.875000 0.250000
vt 0.875000 0.187500
vt 0.875000 0.125000
vt 0.875000 0.062500
vt 0.890625 0.000000
vt 0.875000 0.500000
vt 0.843750 0.187500
vt 0.843750 0.125000
vt 0.843750 0.062500
vt 0.859375 0.000000
vt 0.843750 0.500000
vt 0.843750 0.437500
vt 0.843750 0.375000
vt 0.843750 0.312500
vt 0.843750 0.250000
vt 0.812500 0.437500
vt 0.812500 0.375000
vt 0.812500 0.312500
vt 0.812500 0.250000
vt 0.812500 0.187500
vt 0.812500 0.125000
vt 0.812500 0.062500
vt 0.828125 0.000000
vt 0.812500 0.500000
vt 0.781250 0.187500
vt 0.781250 0.125000
vt 0.781250 0.062500
vt 0.796875 0.000000
vt 0.781250 0.500000
vt 0.781250 0.437500
vt 0.781250 0.375000
vt 0.781250 0.312500
vt 0.781250 0.250000
vt 0.765625 0.000000
vt 0.187500 0.500000
vt 0.156250 0.500000
vt 0.750000 0.394943
vt 0.781250 0.394943
vt 0.000000 0.500000
vt 0.031250 0.500000
vt 0.031250 0.500000
vt 0.000000 0.500000
vt 1.000000 0.394943
vt 0.968750 0.394943
vt 0.968750 0.394943
vt 1.000000 0.394943
vt 0.343750 0.394943
vt 0.375000 0.394943
vt 0.812500 0.394943
vt 0.843750 0.394943
vt 0.718750 0.500000
vt 0.687500 0.500000
vt 0.312500 0.394943
vt 0.343750 0.500000
vt 0.312500 0.500000
vt 0.281250 0.394943
vt 0.500000 0.500000
vt 0.468750 0.500000
vt 0.250000 0.394943
vt 0.125000 0.500000
vt 0.093750 0.500000
vt 0.437500 0.500000
vt 0.406250 0.500000
vt 0.218750 0.394943
vt 0.906250 0.500000
vt 0.875000 0.500000
vt 0.187500 0.394943
vt 0.281250 0.500000
vt 0.250000 0.500000
vt 0.156250 0.394943
vt 0.062500 0.500000
vt 0.125000 0.394943
vt 0.218750 0.500000
vt 0.062500 0.394943
vt 0.093750 0.394943
vt 0.843750 0.500000
vt 0.812500 0.500000
vt 0.000000 0.394943
vt 0.031250 0.394943
vt 1.000000 0.500000
vt 0.968750 0.500000
vt 0.375000 0.500000
vt 0.656250 0.500000
vt 0.625000 0.500000
vt 0.500000 0.394943
vt 0.531250 0.394943
vt 0.937500 0.500000
vt 0.937500 0.394943
vt 0.593750 0.500000
vt 0.562500 0.500000
vt 0.562500 0.394943
vt 0.593750 0.394943
vt 0.906250 0.394943
vt 0.531250 0.500000
vt 0.625000 0.394943
vt 0.750000 0.500000
vt 0.875000 0.394943
vt 0.781250 0.500000
vt 0.656250 0.394943
vt 0.687500 0.394943
vt 0.718750 0.394943
vt 0.468750 0.394943
vt 0.437500 0.394943
vt 0.406250 0.394943
vt 0.274386 0.502402
vt 0.250000 0.500000
vt 0.225614 0.502402
vt 0.202165 0.509515
vt 0.180554 0.521066
vt 0.161612 0.536612
vt 0.146066 0.555554
vt 0.134515 0.577165
vt 0.127402 0.600614
vt 0.125000 0.625000
vt 0.132245 0.625000
vt 0.134508 0.602027
vt 0.141209 0.579937
vt 0.152091 0.559579
vt 0.166735 0.541735
vt 0.184579 0.527090
vt 0.204937 0.516209
vt 0.227027 0.509508
vt 0.250000 0.507245
vt 0.272973 0.509508
vt 0.295063 0.516209
vt 0.315421 0.527091
vt 0.333265 0.541735
vt 0.347909 0.559579
vt 0.358791 0.579937
vt 0.365492 0.602027
vt 0.367755 0.625000
vt 0.375000 0.625000
vt 0.372598 0.600614
vt 0.365485 0.577165
vt 0.353934 0.555554
vt 0.338388 0.536612
vt 0.319446 0.521066
vt 0.297835 0.509515
vt 0.365492 0.647973
vt 0.358791 0.670063
vt 0.347909 0.690421
vt 0.333265 0.708265
vt 0.315421 0.722910
vt 0.295063 0.733791
vt 0.272973 0.740492
vt 0.250000 0.742755
vt 0.227027 0.740492
vt 0.204937 0.733791
vt 0.184579 0.722910
vt 0.166735 0.708265
vt 0.152091 0.690421
vt 0.141209 0.670063
vt 0.134508 0.647973
vt 0.127402 0.649386
vt 0.134515 0.672835
vt 0.146066 0.694446
vt 0.161612 0.713388
vt 0.180554 0.728934
vt 0.202165 0.740485
vt 0.225614 0.747598
vt 0.250000 0.750000
vt 0.274386 0.747598
vt 0.297835 0.740485
vt 0.319446 0.728934
vt 0.338388 0.713388
vt 0.353934 0.694446
vt 0.365485 0.672835
vt 0.372598 0.649386
vt 0.937500 0.394943
vt 1.000000 0.500000
vt 0.968750 0.500000
vt 0.531250 0.394943
vt 0.562500 0.394943
vt 0.937500 0.500000
vt 0.593750 0.394943
vt 0.906250 0.500000
vt 0.750000 0.500000
vt 0.718750 0.500000
vt 0.906250 0.394943
vt 0.875000 0.500000
vt 0.687500 0.500000
vt 0.625000 0.394943
vt 0.843750 0.500000
vt 0.656250 0.500000
vt 0.875000 0.394943
vt 0.812500 0.500000
vt 0.625000 0.500000
vt 0.656250 0.394943
vt 0.781250 0.500000
vt 0.593750 0.500000
vt 0.843750 0.394943
vt 0.562500 0.500000
vt 0.687500 0.394943
vt 0.718750 0.394943
vt 0.468750 0.394943
vt 0.500000 0.394943
vt 0.531250 0.500000
vt 0.781250 0.394943
vt 0.812500 0.394943
vt 0.437500 0.394943
vt 0.500000 0.500000
vt 0.406250 0.394943
vt 0.468750 0.500000
vt 0.750000 0.394943
vt 0.375000 0.394943
vt 0.437500 0.500000
vt 0.343750 0.394943
vt 0.406250 0.500000
vt 0.312500 0.394943
vt 0.375000 0.500000
vt 0.281250 0.394943
vt 0.343750 0.500000
vt 0.250000 0.394943
vt 0.312500 0.500000
vt 0.218750 0.394943
vt 0.281250 0.500000
vt 0.187500 0.394943
vt 0.250000 0.500000
vt 0.156250 0.394943
vt 0.218750 0.500000
vt 0.125000 0.394943
vt 0.187500 0.500000
vt 0.062500 0.394943
vt 0.093750 0.394943
vt 0.156250 0.500000
vt 0.125000 0.500000
vt 0.000000 0.394943
vt 0.031250 0.394943
vt 0.093750 0.500000
vt 0.062500 0.500000
vt 0.319446 0.521066
vt 0.338388 0.536612
vt 0.202165 0.509515
vt 0.225614 0.502402
vt 0.225614 0.747598
vt 0.202165 0.740485
vt 0.353934 0.555554
vt 0.250000 0.500000
vt 0.180554 0.728934
vt 0.365485 0.577165
vt 0.161612 0.713388
vt 0.372598 0.600614
vt 0.146066 0.694446
vt 0.375000 0.625000
vt 0.134515 0.672835
vt 0.372598 0.649386
vt 0.127402 0.649386
vt 0.365485 0.672835
vt 0.000000 0.500000
vt 0.031250 0.500000
vt 0.353934 0.694446
vt 0.125000 0.625000
vt 0.127402 0.600614
vt 0.338388 0.713388
vt 0.134515 0.577165
vt 0.319446 0.728934
vt 0.146066 0.555554
vt 0.297835 0.740485
vt 0.274386 0.502402
vt 0.161612 0.536612
vt 0.274386 0.747598
vt 0.297835 0.509515
vt 0.180554 0.521066
vt 0.250000 0.750000
vn -0.0097 0.9951 0.0980
vn -0.0938 0.2890 0.9527
vn -0.0865 0.4696 0.8786
vn -0.0759 0.6326 0.7708
vn -0.0624 0.7715 0.6332
vn -0.0464 0.8810 0.4709
vn -0.0286 0.9565 0.2902
vn -0.0846 0.9565 0.2790
vn -0.0286 0.9951 0.0942
vn -0.2779 0.2890 0.9161
vn -0.2563 0.4696 0.8448
vn -0.2248 0.6326 0.7412
vn -0.1847 0.7715 0.6088
vn -0.1374 0.8810 0.4528
vn -0.3651 0.6326 0.6831
vn -0.2999 0.7715 0.5611
vn -0.2230 0.8810 0.4173
vn -0.1374 0.9565 0.2571
vn -0.0464 0.9951 0.0869
vn -0.4513 0.2890 0.8443
vn -0.4162 0.4696 0.7786
vn -0.0625 0.9951 0.0761
vn -0.6073 0.2890 0.7400
vn -0.5601 0.4696 0.6825
vn -0.4913 0.6326 0.5987
vn -0.4036 0.7715 0.4918
vn -0.3002 0.8810 0.3658
vn -0.1850 0.9565 0.2254
vn -0.5987 0.6326 0.4913
vn -0.4918 0.7715 0.4036
vn -0.3658 0.8810 0.3002
vn -0.2254 0.9565 0.1850
vn -0.0761 0.9951 0.0625
vn -0.7400 0.2890 0.6073
vn -0.6825 0.4696 0.5601
vn -0.0869 0.9951 0.0464
vn -0.8443 0.2890 0.4513
vn -0.7786 0.4696 0.4162
vn -0.6831 0.6326 0.3651
vn -0.5611 0.7715 0.2999
vn -0.4173 0.8810 0.2230
vn -0.2571 0.9565 0.1374
vn -0.6088 0.7715 0.1847
vn -0.4528 0.8810 0.1374
vn -0.2790 0.9565 0.0846
vn -0.0942 0.9951 0.0286
vn -0.9161 0.2890 0.2779
vn -0.8448 0.4696 0.2563
vn -0.7412 0.6326 0.2248
vn -0.9527 0.2890 0.0938
vn -0.8786 0.4696 0.0865
vn -0.7708 0.6326 0.0759
vn -0.6332 0.7715 0.0624
vn -0.4709 0.8810 0.0464
vn -0.2902 0.9565 0.0286
vn -0.0980 0.9951 0.0097
vn -0.4709 0.8810 -0.0464
vn -0.2902 0.9565 -0.0286
vn -0.0980 0.9951 -0.0097
vn -0.9527 0.2890 -0.0938
vn -0.8786 0.4696 -0.0865
vn -0.7708 0.6326 -0.0759
vn -0.6332 0.7715 -0.0624
vn -0.9161 0.2890 -0.2779
vn -0.8448 0.4696 -0.2563
vn -0.7412 0.6326 -0.2248
vn -0.6088 0.7715 -0.1847
vn -0.4528 0.8810 -0.1374
vn -0.2790 0.9565 -0.0846
vn -0.0942 0.9951 -0.0286
vn -0.4173 0.8810 -0.2230
vn -0.2571 0.9565 -0.1374
vn -0.0869 0.9951 -0.0464
vn -0.8443 0.2890 -0.4513
vn -0.7786 0.4696 -0.4162
vn -0.6831 0.6326 -0.3651
vn -0.5611 0.7715 -0.2999
vn -0.6825 0.4696 -0.5601
vn -0.5987 0.6326 -0.4913
vn -0.4918 0.7715 -0.4036
vn -0.3658 0.8810 -0.3002
vn -0.2254 0.9565 -0.1850
vn -0.0761 0.9951 -0.0625
vn -0.7400 0.2890 -0.6073
vn -0.1850 0.9565 -0.2254
vn -0.0625 0.9951 -0.0761
vn -0.6073 0.2890 -0.7400
vn -0.5601 0.4696 -0.6825
vn -0.4913 0.6326 -0.5987
vn -0.4036 0.7715 -0.4918
vn -0.3002 0.8810 -0.3658
vn -0.4162 0.4696 -0.7786
vn -0.3651 0.6326 -0.6831
vn -0.2999 0.7715 -0.5611
vn -0.2230 0.8810 -0.4173
vn -0.1374 0.9565 -0.2571
vn -0.0464 0.9951 -0.0869
vn -0.4513 0.2890 -0.8443
vn -0.0846 0.9565 -0.2790
vn -0.0286 0.9951 -0.0942
vn -0.2779 0.2890 -0.9161
vn -0.2563 0.4696 -0.8448
vn -0.2248 0.6326 -0.7412
vn -0.1847 0.7715 -0.6088
vn -0.1374 0.8810 -0.4528
vn -0.0759 0.6326 -0.7708
vn -0.0624 0.7715 -0.6332
vn -0.0464 0.8810 -0.4709
vn -0.0286 0.9565 -0.2902
vn -0.0097 0.9951 -0.0980
vn -0.0938 0.2890 -0.9527
vn -0.0865 0.4696 -0.8786
vn 0.0097 0.9951 -0.0980
vn 0.0938 0.2890 -0.9527
vn 0.0865 0.4696 -0.8786
vn 0.0759 0.6326 -0.7708
vn 0.0624 0.7715 -0.6332
vn 0.0464 0.8810 -0.4709
vn 0.0286 0.9565 -0.2902
vn 0.1847 0.7715 -0.6088
vn 0.1374 0.8810 -0.4528
vn 0.0846 0.9565 -0.2790
vn 0.0286 0.9951 -0.0942
vn 0.2779 0.2890 -0.9161
vn 0.2563 0.4696 -0.8448
vn 0.2248 0.6326 -0.7412
vn 0.4513 0.2890 -0.8443
vn 0.4162 0.4696 -0.7786
vn 0.3651 0.6326 -0.6831
vn 0.2999 0.7715 -0.5611
vn 0.2231 0.8810 -0.4173
vn 0.1374 0.9565 -0.2571
vn 0.0464 0.9951 -0.0869
vn 0.4036 0.7715 -0.4918
vn 0.3002 0.8810 -0.3658
vn 0.1850 0.9565 -0.2254
vn 0.0625 0.9951 -0.0761
vn 0.6073 0.2890 -0.7400
vn 0.5601 0.4696 -0.6825
vn 0.4913 0.6326 -0.5987
vn 0.7400 0.2890 -0.6073
vn 0.6825 0.4696 -0.5601
vn 0.5987 0.6326 -0.4913
vn 0.4918 0.7715 -0.4036
vn 0.3658 0.8810 -0.3002
vn 0.2254 0.9565 -0.1850
vn 0.0761 0.9951 -0.0625
vn 0.4173 0.8810 -0.2230
vn 0.2571 0.9565 -0.1374
vn 0.0869 0.9951 -0.0464
vn 0.8443 0.2890 -0.4513
vn 0.7786 0.4696 -0.4162
vn 0.6831 0.6326 -0.3651
vn 0.5611 0.7715 -0.2999
vn 0.9161 0.2890 -0.2779
vn 0.8448 0.4696 -0.2563
vn 0.7412 0.6326 -0.2248
vn 0.6088 0.7715 -0.1847
vn 0.4528 0.8810 -0.1374
vn 0.2790 0.9565 -0.0846
vn 0.0942 0.9951 -0.0286
vn 0.4709 0.8810 -0.0464
vn 0.2902 0.9565 -0.0286
vn 0.0980 0.9951 -0.0097
vn 0.9527 0.2890 -0.0938
vn 0.8786 0.4696 -0.0865
vn 0.7708 0.6326 -0.0759
vn 0.6332 0.7715 -0.0624
vn 0.8786 0.4696 0.0865
vn 0.7708 0.6326 0.0759
vn 0.6332 0.7715 0.0624
vn 0.4709 0.8810 0.0464
vn 0.2902 0.9565 0.0286
vn 0.0980 0.9951 0.0097
vn 0.9527 0.2890 0.0938
vn 0.2790 0.9565 0.0846
vn 0.0942 0.9951 0.0286
vn 0.9161 0.2890 0.2779
vn 0.8448 0.4696 0.2563
vn 0.7412 0.6326 0.2248
vn 0.6088 0.7715 0.1847
vn 0.4528 0.8810 0.1374
vn 0.6831 0.6326 0.3651
vn 0.5611 0.7715 0.2999
vn 0.4173 0.8810 0.2231
vn 0.2571 0.9565 0.1374
vn 0.0869 0.9951 0.0464
vn 0.8443 0.2890 0.4513
vn 0.7786 0.4696 0.4162
vn 0.0761 0.9951 0.0625
vn 0.7400 0.2890 0.6073
vn 0.6825 0.4696 0.5601
vn 0.5987 0.6326 0.4913
vn 0.4918 0.7715 0.4036
vn 0.3658 0.8810 0.3002
vn 0.2254 0.9565 0.1850
vn 0.4913 0.6326 0.5987
vn 0.4036 0.7715 0.4918
vn 0.3002 0.8810 0.3658
vn 0.1850 0.9565 0.2254
vn 0.0625 0.9951 0.0761
vn 0.6073 0.2890 0.7400
vn 0.5601 0.4696 0.6825
vn 0.0464 0.9951 0.0869
vn 0.4513 0.2890 0.8443
vn 0.4162 0.4696 0.7786
vn 0.3651 0.6326 0.6831
vn 0.2999 0.7715 0.5611
vn 0.2230 0.8810 0.4173
vn 0.1374 0.9565 0.2571
vn 0.1847 0.7715 0.6088
vn 0.1374 0.8810 0.4528
vn 0.0846 0.9565 0.2790
vn 0.0286 0.9951 0.0942
vn 0.2779 0.2890 0.9161
vn 0.2563 0.4696 0.8448
vn 0.2248 0.6326 0.7412
vn 0.0938 0.2890 0.9527
vn 0.0865 0.4696 0.8786
vn 0.0759 0.6326 0.7708
vn 0.0624 0.7715 0.6332
vn 0.0464 0.8810 0.4709
vn 0.0286 0.9565 0.2902
vn 0.0097 0.9951 0.0980
vn 0.0938 -0.2890 -0.9527
vn 0.0865 -0.4696 -0.8786
vn 0.0759 -0.6326 -0.7708
vn 0.0624 -0.7715 -0.6332
vn 0.0464 -0.8810 -0.4709
vn 0.0286 -0.9565 -0.2902
vn 0.0097 -0.9951 -0.0980
vn 0.0975 -0.0975 -0.9904
vn 0.2889 -0.0975 -0.9524
vn 0.2779 -0.2890 -0.9161
vn 0.2563 -0.4696 -0.8448
vn 0.2248 -0.6326 -0.7412
vn 0.1847 -0.7715 -0.6088
vn 0.1374 -0.8810 -0.4528
vn 0.0846 -0.9565 -0.2790
vn 0.0286 -0.9951 -0.0942
vn 0.2999 -0.7715 -0.5611
vn 0.2230 -0.8810 -0.4173
vn 0.1374 -0.9565 -0.2571
vn 0.0464 -0.9951 -0.0869
vn 0.4691 -0.0975 -0.8777
vn 0.4513 -0.2890 -0.8443
vn 0.4162 -0.4696 -0.7786
vn 0.3651 -0.6326 -0.6831
vn 0.6073 -0.2890 -0.7400
vn 0.5601 -0.4696 -0.6825
vn 0.4913 -0.6326 -0.5987
vn 0.4036 -0.7715 -0.4918
vn 0.3002 -0.8810 -0.3658
vn 0.1850 -0.9565 -0.2254
vn 0.0625 -0.9951 -0.0761
vn 0.6314 -0.0975 -0.7693
vn 0.3658 -0.8810 -0.3002
vn 0.2254 -0.9565 -0.1850
vn 0.0761 -0.9951 -0.0625
vn 0.7693 -0.0975 -0.6314
vn 0.7400 -0.2890 -0.6073
vn 0.6825 -0.4696 -0.5601
vn 0.5987 -0.6326 -0.4913
vn 0.4918 -0.7715 -0.4036
vn 0.8443 -0.2890 -0.4513
vn 0.7786 -0.4696 -0.4162
vn 0.6831 -0.6326 -0.3651
vn 0.5611 -0.7715 -0.2999
vn 0.4173 -0.8810 -0.2231
vn 0.2571 -0.9565 -0.1374
vn 0.0869 -0.9951 -0.0464
vn 0.8777 -0.0976 -0.4691
vn 0.4528 -0.8810 -0.1374
vn 0.2790 -0.9565 -0.0846
vn 0.0942 -0.9951 -0.0286
vn 0.9524 -0.0976 -0.2889
vn 0.9161 -0.2890 -0.2779
vn 0.8448 -0.4696 -0.2563
vn 0.7412 -0.6326 -0.2248
vn 0.6088 -0.7715 -0.1847
vn 0.8786 -0.4696 -0.0865
vn 0.7708 -0.6326 -0.0759
vn 0.6332 -0.7715 -0.0624
vn 0.4709 -0.8810 -0.0464
vn 0.2902 -0.9565 -0.0286
vn 0.0980 -0.9951 -0.0097
vn 0.9904 -0.0976 -0.0975
vn 0.9527 -0.2890 -0.0938
vn 0.2902 -0.9565 0.0286
vn 0.0980 -0.9951 0.0097
vn 0.9904 -0.0976 0.0975
vn 0.9527 -0.2890 0.0938
vn 0.8786 -0.4696 0.0865
vn 0.7708 -0.6326 0.0759
vn 0.6332 -0.7715 0.0624
vn 0.4709 -0.8810 0.0464
vn 0.7412 -0.6326 0.2248
vn 0.6088 -0.7715 0.1847
vn 0.4528 -0.8810 0.1374
vn 0.2790 -0.9565 0.0846
vn 0.0942 -0.9951 0.0286
vn 0.9524 -0.0976 0.2889
vn 0.9161 -0.2890 0.2779
vn 0.8448 -0.4696 0.2563
vn 0.0869 -0.9951 0.0464
vn 0.8777 -0.0976 0.4691
vn 0.8443 -0.2890 0.4513
vn 0.7786 -0.4696 0.4162
vn 0.6831 -0.6326 0.3651
vn 0.5611 -0.7715 0.2999
vn 0.4173 -0.8810 0.2231
vn 0.2571 -0.9565 0.1374
vn 0.5987 -0.6326 0.4913
vn 0.4918 -0.7715 0.4036
vn 0.3658 -0.8810 0.3002
vn 0.2254 -0.9565 0.1850
vn 0.0761 -0.9951 0.0625
vn 0.7693 -0.0976 0.6314
vn 0.7400 -0.2890 0.6073
vn 0.6825 -0.4696 0.5601
vn 0.0625 -0.9951 0.0761
vn 0.6314 -0.0976 0.7693
vn 0.6073 -0.2890 0.7400
vn 0.5601 -0.4696 0.6825
vn 0.4913 -0.6326 0.5987
vn 0.4036 -0.7715 0.4918
vn 0.3002 -0.8810 0.3658
vn 0.1850 -0.9565 0.2254
vn 0.2999 -0.7715 0.5611
vn 0.2230 -0.8810 0.4173
vn 0.1374 -0.9565 0.2571
vn 0.0464 -0.9951 0.0869
vn 0.4691 -0.0976 0.8777
vn 0.4513 -0.2890 0.8443
vn 0.4162 -0.4696 0.7786
vn 0.3651 -0.6326 0.6831
vn 0.2889 -0.0976 0.9524
vn 0.2779 -0.2890 0.9161
vn 0.2563 -0.4696 0.8448
vn 0.2248 -0.6326 0.7412
vn 0.1847 -0.7715 0.6088
vn 0.1374 -0.8810 0.4528
vn 0.0846 -0.9565 0.2790
vn 0.0286 -0.9951 0.0942
vn 0.0624 -0.7715 0.6332
vn 0.0464 -0.8810 0.4709
vn 0.0286 -0.9565 0.2902
vn 0.0097 -0.9951 0.0980
vn 0.0975 -0.0976 0.9904
vn 0.0938 -0.2890 0.9527
vn 0.0865 -0.4696 0.8786
vn 0.0759 -0.6326 0.7708
vn -0.0938 -0.2890 0.9527
vn -0.0865 -0.4696 0.8786
vn -0.0759 -0.6326 0.7708
vn -0.0624 -0.7715 0.6332
vn -0.0464 -0.8810 0.4709
vn -0.0286 -0.9565 0.2902
vn -0.0097 -0.9951 0.0980
vn -0.0975 -0.0976 0.9904
vn -0.1374 -0.8810 0.4528
vn -0.0846 -0.9565 0.2790
vn -0.0286 -0.9951 0.0942
vn -0.2889 -0.0976 0.9524
vn -0.2779 -0.2890 0.9161
vn -0.2563 -0.4696 0.8448
vn -0.2248 -0.6326 0.7412
vn -0.1847 -0.7715 0.6088
vn -0.4162 -0.4696 0.7786
vn -0.3651 -0.6326 0.6831
vn -0.2999 -0.7715 0.5611
vn -0.2231 -0.8810 0.4173
vn -0.1374 -0.9565 0.2571
vn -0.0464 -0.9951 0.0869
vn -0.4691 -0.0976 0.8777
vn -0.4513 -0.2890 0.8443
vn -0.1850 -0.9565 0.2254
vn -0.0625 -0.9951 0.0761
vn -0.6314 -0.0976 0.7693
vn -0.6073 -0.2890 0.7400
vn -0.5601 -0.4696 0.6825
vn -0.4913 -0.6326 0.5987
vn -0.4036 -0.7715 0.4918
vn -0.3002 -0.8810 0.3658
vn -0.6825 -0.4696 0.5601
vn -0.5987 -0.6326 0.4913
vn -0.4918 -0.7715 0.4036
vn -0.3658 -0.8810 0.3002
vn -0.2254 -0.9565 0.1850
vn -0.0761 -0.9951 0.0625
vn -0.7693 -0.0976 0.6314
vn -0.7400 -0.2890 0.6073
vn -0.2571 -0.9565 0.1374
vn -0.0869 -0.9951 0.0464
vn -0.8777 -0.0976 0.4691
vn -0.8443 -0.2890 0.4513
vn -0.7786 -0.4696 0.4162
vn -0.6831 -0.6326 0.3651
vn -0.5611 -0.7715 0.2999
vn -0.4173 -0.8810 0.2231
vn -0.7412 -0.6326 0.2248
vn -0.6088 -0.7715 0.1847
vn -0.4528 -0.8810 0.1374
vn -0.2790 -0.9565 0.0846
vn -0.0942 -0.9951 0.0286
vn -0.9524 -0.0976 0.2889
vn -0.9161 -0.2890 0.2779
vn -0.8448 -0.4696 0.2563
vn -0.0980 -0.9951 0.0097
vn -0.9904 -0.0976 0.0975
vn -0.9527 -0.2890 0.0938
vn -0.8786 -0.4696 0.0865
vn -0.7708 -0.6326 0.0759
vn -0.6332 -0.7715 0.0624
vn -0.4709 -0.8810 0.0464
vn -0.2902 -0.9565 0.0286
vn -0.7708 -0.6326 -0.0759
vn -0.6332 -0.7715 -0.0624
vn -0.4709 -0.8810 -0.0464
vn -0.2902 -0.9565 -0.0286
vn -0.0980 -0.9951 -0.0097
vn -0.9904 -0.0976 -0.0976
vn -0.9527 -0.2890 -0.0938
vn -0.8786 -0.4696 -0.0865
vn -0.0942 -0.9951 -0.0286
vn -0.9524 -0.0976 -0.2889
vn -0.9161 -0.2890 -0.2779
vn -0.8448 -0.4696 -0.2563
vn -0.7412 -0.6326 -0.2248
vn -0.6088 -0.7715 -0.1847
vn -0.4528 -0.8810 -0.1374
vn -0.2790 -0.9565 -0.0846
vn -0.5611 -0.7715 -0.2999
vn -0.4173 -0.8810 -0.2231
vn -0.2571 -0.9565 -0.1374
vn -0.0869 -0.9951 -0.0464
vn -0.8777 -0.0976 -0.4691
vn -0.8443 -0.2890 -0.4513
vn -0.7786 -0.4696 -0.4162
vn -0.6831 -0.6326 -0.3651
vn -0.7400 -0.2890 -0.6073
vn -0.6825 -0.4696 -0.5601
vn -0.5987 -0.6326 -0.4913
vn -0.4918 -0.7715 -0.4036
vn -0.3658 -0.8810 -0.3002
vn -0.2254 -0.9565 -0.1850
vn -0.0761 -0.9951 -0.0625
vn -0.7693 -0.0976 -0.6314
vn -0.3002 -0.8810 -0.3658
vn -0.1850 -0.9565 -0.2254
vn -0.0625 -0.9951 -0.0761
vn -0.6314 -0.0976 -0.7693
vn -0.6073 -0.2890 -0.7400
vn -0.5601 -0.4696 -0.6825
vn -0.4913 -0.6326 -0.5987
vn -0.4036 -0.7715 -0.4918
vn -0.4513 -0.2890 -0.8443
vn -0.4162 -0.4696 -0.7786
vn -0.3651 -0.6326 -0.6831
vn -0.2999 -0.7715 -0.5611
vn -0.2230 -0.8810 -0.4173
vn -0.1374 -0.9565 -0.2571
vn -0.0464 -0.9951 -0.0869
vn -0.4691 -0.0976 -0.8777
vn -0.1374 -0.8810 -0.4528
vn -0.0846 -0.9565 -0.2790
vn -0.0286 -0.9951 -0.0942
vn -0.2889 -0.0976 -0.9524
vn -0.2779 -0.2890 -0.9161
vn -0.2563 -0.4696 -0.8448
vn -0.2248 -0.6326 -0.7412
vn -0.1847 -0.7715 -0.6088
vn -0.0865 -0.4696 -0.8786
vn -0.0759 -0.6326 -0.7708
vn -0.0624 -0.7715 -0.6332
vn -0.0464 -0.8810 -0.4709
vn -0.0286 -0.9565 -0.2902
vn -0.0097 -0.9951 -0.0980
vn -0.0976 -0.0976 -0.9904
vn -0.0938 -0.2890 -0.9527
vn -0.4714 0.0000 0.8819
vn 0.0980 0.0000 0.9952
vn -0.9952 -0.0000 0.0980
vn 0.9952 0.0000 0.0980
vn -0.6344 -0.0000 -0.7730
vn 0.4714 0.0000 0.8819
vn 0.2903 -0.0000 -0.9569
vn -0.4714 -0.0000 -0.8819
vn -0.2903 -0.0000 -0.9569
vn -0.0980 -0.0000 -0.9952
vn -0.7730 0.0000 0.6344
vn 0.8819 0.0000 0.4714
vn 0.0980 -0.0000 -0.9952
vn -0.7730 0.0000 -0.6344
vn 0.4714 -0.0000 -0.8819
vn -0.9569 0.0000 0.2903
vn 0.6344 -0.0000 -0.7730
vn -0.2903 0.0000 0.9569
vn 0.8819 -0.0000 -0.4714
vn 0.7730 -0.0000 -0.6344
vn 0.9952 -0.0000 -0.0980
vn -0.9952 0.0000 -0.0980
vn 0.6344 0.0000 0.7730
vn -0.6344 0.0000 0.7730
vn 0.9569 -0.0000 -0.2903
vn -0.8819 0.0000 -0.4714
vn 0.2903 0.0000 0.9569
vn 0.9569 -0.0000 0.2903
vn -0.8819 0.0000 0.4714
vn 0.7730 -0.0000 0.6344
vn -0.9569 0.0000 -0.2903
vn -0.0980 0.0000 0.9952
vn 0.0000 1.0000 -0.0000
vn 0.0000 0.0000 1.0000
usemtl Material.001
s off
f 80/1/1 7/2/1 193/3/1
f 189/4/2 2/5/2 479/6/2 481/7/2
f 190/8/3 3/9/3 2/5/3 189/4/3
f 191/10/4 4/11/4 3/9/4 190/8/4
f 1/12/5 5/13/5 4/11/5 191/10/5
f 192/14/6 6/15/6 5/13/6 1/12/6
f 193/3/7 7/2/7 6/15/7 192/14/7
f 7/2/8 13/16/8 12/17/8 6/15/8
f 80/18/9 13/16/9 7/2/9
f 2/5/10 8/19/10 478/20/10 479/6/10
f 3/9/11 9/21/11 8/19/11 2/5/11
f 4/11/12 10/22/12 9/21/12 3/9/12
f 5/13/13 11/23/13 10/22/13 4/11/13
f 6/15/14 12/17/14 11/23/14 5/13/14
f 10/22/15 16/24/15 15/25/15 9/21/15
f 11/23/16 17/26/16 16/24/16 10/22/16
f 12/17/17 18/27/17 17/26/17 11/23/17
f 13/16/18 19/28/18 18/27/18 12/17/18
f 80/29/19 19/28/19 13/16/19
f 8/19/20 14/30/20 476/31/20 478/20/20
f 9/21/21 15/25/21 14/30/21 8/19/21
f 80/32/22 25/33/22 19/28/22
f 14/30/23 20/34/23 474/35/23 476/31/23
f 15/25/24 21/36/24 20/34/24 14/30/24
f 16/24/25 22/37/25 21/36/25 15/25/25
f 17/26/26 23/38/26 22/37/26 16/24/26
f 18/27/27 24/39/27 23/38/27 17/26/27
f 19/28/28 25/33/28 24/39/28 18/27/28
f 22/37/29 28/40/29 27/41/29 21/36/29
f 23/38/30 29/42/30 28/40/30 22/37/30
f 24/39/31 30/43/31 29/42/31 23/38/31
f 25/33/32 31/44/32 30/43/32 24/39/32
f 80/45/33 31/44/33 25/33/33
f 20/34/34 26/46/34 472/47/34 474/35/34
f 21/36/35 27/41/35 26/46/35 20/34/35
f 80/48/36 37/49/36 31/44/36
f 26/46/37 32/50/37 470/51/37 472/47/37
f 27/41/38 33/52/38 32/50/38 26/46/38
f 28/40/39 34/53/39 33/52/39 27/41/39
f 29/42/40 35/54/40 34/53/40 28/40/40
f 30/43/41 36/55/41 35/54/41 29/42/41
f 31/44/42 37/49/42 36/55/42 30/43/42
f 35/54/43 41/56/43 40/57/43 34/53/43
f 36/55/44 42/58/44 41/56/44 35/54/44
f 37/49/45 43/59/45 42/58/45 36/55/45
f 80/60/46 43/59/46 37/49/46
f 32/50/47 38/61/47 468/62/47 470/51/47
f 33/52/48 39/63/48 38/61/48 32/50/48
f 34/53/49 40/57/49 39/63/49 33/52/49
f 38/61/50 44/64/50 451/65/50 468/62/50
f 39/63/51 45/66/51 44/64/51 38/61/51
f 40/57/52 46/67/52 45/66/52 39/63/52
f 41/56/53 47/68/53 46/67/53 40/57/53
f 42/58/54 48/69/54 47/68/54 41/56/54
f 43/59/55 49/70/55 48/69/55 42/58/55
f 80/71/56 49/70/56 43/59/56
f 48/69/57 54/72/57 53/73/57 47/68/57
f 49/70/58 55/74/58 54/72/58 48/69/58
f 80/75/59 55/74/59 49/70/59
f 44/64/60 50/76/60 452/77/60 451/65/60
f 45/66/61 51/78/61 50/76/61 44/64/61
f 46/67/62 52/79/62 51/78/62 45/66/62
f 47/68/63 53/73/63 52/79/63 46/67/63
f 50/76/64 56/80/64 453/81/64 452/77/64
f 51/78/65 57/82/65 56/80/65 50/76/65
f 52/79/66 58/83/66 57/82/66 51/78/66
f 53/73/67 59/84/67 58/83/67 52/79/67
f 54/72/68 60/85/68 59/84/68 53/73/68
f 55/74/69 61/86/69 60/85/69 54/72/69
f 80/87/70 61/86/70 55/74/70
f 60/85/71 66/88/71 65/89/71 59/84/71
f 61/86/72 67/90/72 66/88/72 60/85/72
f 80/91/73 67/90/73 61/86/73
f 56/80/74 62/92/74 454/93/74 453/81/74
f 57/82/75 63/94/75 62/92/75 56/80/75
f 58/83/76 64/95/76 63/94/76 57/82/76
f 59/84/77 65/89/77 64/95/77 58/83/77
f 63/94/78 69/96/78 68/97/78 62/92/78
f 64/95/79 70/98/79 69/96/79 63/94/79
f 65/89/80 71/99/80 70/98/80 64/95/80
f 66/88/81 72/100/81 71/99/81 65/89/81
f 67/90/82 73/101/82 72/100/82 66/88/82
f 80/102/83 73/101/83 67/90/83
f 62/92/84 68/97/84 455/103/84 454/93/84
f 73/101/85 79/104/85 78/105/85 72/100/85
f 80/106/86 79/104/86 73/101/86
f 68/97/87 74/107/87 456/108/87 455/103/87
f 69/96/88 75/109/88 74/107/88 68/97/88
f 70/98/89 76/110/89 75/109/89 69/96/89
f 71/99/90 77/111/90 76/110/90 70/98/90
f 72/100/91 78/105/91 77/111/91 71/99/91
f 75/109/92 82/112/92 81/113/92 74/107/92
f 76/110/93 83/114/93 82/112/93 75/109/93
f 77/111/94 84/115/94 83/114/94 76/110/94
f 78/105/95 85/116/95 84/115/95 77/111/95
f 79/104/96 86/117/96 85/116/96 78/105/96
f 80/118/97 86/117/97 79/104/97
f 74/107/98 81/113/98 457/119/98 456/108/98
f 86/117/99 92/120/99 91/121/99 85/116/99
f 80/122/100 92/120/100 86/117/100
f 81/113/101 87/123/101 458/124/101 457/119/101
f 82/112/102 88/125/102 87/123/102 81/113/102
f 83/114/103 89/126/103 88/125/103 82/112/103
f 84/115/104 90/127/104 89/126/104 83/114/104
f 85/116/105 91/121/105 90/127/105 84/115/105
f 89/126/106 95/128/106 94/129/106 88/125/106
f 90/127/107 96/130/107 95/128/107 89/126/107
f 91/121/108 97/131/108 96/130/108 90/127/108
f 92/120/109 98/132/109 97/131/109 91/121/109
f 80/133/110 98/132/110 92/120/110
f 87/123/111 93/134/111 459/135/111 458/124/111
f 88/125/112 94/129/112 93/134/112 87/123/112
f 80/136/113 104/137/113 98/132/113
f 93/134/114 99/138/114 460/139/114 459/135/114
f 94/129/115 100/140/115 99/138/115 93/134/115
f 95/128/116 101/141/116 100/140/116 94/129/116
f 96/130/117 102/142/117 101/141/117 95/128/117
f 97/131/118 103/143/118 102/142/118 96/130/118
f 98/132/119 104/137/119 103/143/119 97/131/119
f 102/142/120 108/144/120 107/145/120 101/141/120
f 103/143/121 109/146/121 108/144/121 102/142/121
f 104/137/122 110/147/122 109/146/122 103/143/122
f 80/148/123 110/147/123 104/137/123
f 99/138/124 105/149/124 461/150/124 460/139/124
f 100/140/125 106/151/125 105/149/125 99/138/125
f 101/141/126 107/145/126 106/151/126 100/140/126
f 105/149/127 111/152/127 462/153/127 461/150/127
f 106/151/128 112/154/128 111/152/128 105/149/128
f 107/145/129 113/155/129 112/154/129 106/151/129
f 108/144/130 114/156/130 113/155/130 107/145/130
f 109/146/131 115/157/131 114/156/131 108/144/131
f 110/147/132 116/158/132 115/157/132 109/146/132
f 80/159/133 116/158/133 110/147/133
f 114/156/134 120/160/134 119/161/134 113/155/134
f 115/157/135 121/162/135 120/160/135 114/156/135
f 116/158/136 122/163/136 121/162/136 115/157/136
f 80/164/137 122/163/137 116/158/137
f 111/152/138 117/165/138 463/166/138 462/153/138
f 112/154/139 118/167/139 117/165/139 111/152/139
f 113/155/140 119/161/140 118/167/140 112/154/140
f 117/165/141 123/168/141 465/169/141 463/166/141
f 118/167/142 124/170/142 123/168/142 117/165/142
f 119/161/143 125/171/143 124/170/143 118/167/143
f 120/160/144 126/172/144 125/171/144 119/161/144
f 121/162/145 127/173/145 126/172/145 120/160/145
f 122/163/146 128/174/146 127/173/146 121/162/146
f 80/175/147 128/174/147 122/163/147
f 127/173/148 133/176/148 132/177/148 126/172/148
f 128/174/149 134/178/149 133/176/149 127/173/149
f 80/179/150 134/178/150 128/174/150
f 123/168/151 129/180/151 464/181/151 465/169/151
f 124/170/152 130/182/152 129/180/152 123/168/152
f 125/171/153 131/183/153 130/182/153 124/170/153
f 126/172/154 132/177/154 131/183/154 125/171/154
f 129/180/155 135/184/155 467/185/155 464/181/155
f 130/182/156 136/186/156 135/184/156 129/180/156
f 131/183/157 137/187/157 136/186/157 130/182/157
f 132/177/158 138/188/158 137/187/158 131/183/158
f 133/176/159 139/189/159 138/188/159 132/177/159
f 134/178/160 140/190/160 139/189/160 133/176/160
f 80/191/161 140/190/161 134/178/161
f 139/189/162 145/192/162 144/193/162 138/188/162
f 140/190/163 146/194/163 145/192/163 139/189/163
f 80/195/164 146/194/164 140/190/164
f 135/184/165 141/196/165 466/197/165 467/185/165
f 136/186/166 142/198/166 141/196/166 135/184/166
f 137/187/167 143/199/167 142/198/167 136/186/167
f 138/188/168 144/193/168 143/199/168 137/187/168
f 142/200/169 148/201/169 147/202/169 141/203/169
f 143/204/170 149/205/170 148/201/170 142/200/170
f 144/206/171 150/207/171 149/205/171 143/204/171
f 145/208/172 151/209/172 150/207/172 144/206/172
f 146/210/173 152/211/173 151/209/173 145/208/173
f 80/212/174 152/211/174 146/210/174
f 141/203/175 147/202/175 469/213/175 466/214/175
f 152/211/176 158/215/176 157/216/176 151/209/176
f 80/217/177 158/215/177 152/211/177
f 147/202/178 153/218/178 471/219/178 469/213/178
f 148/201/179 154/220/179 153/218/179 147/202/179
f 149/205/180 155/221/180 154/220/180 148/201/180
f 150/207/181 156/222/181 155/221/181 149/205/181
f 151/209/182 157/216/182 156/222/182 150/207/182
f 155/221/183 161/223/183 160/224/183 154/220/183
f 156/222/184 162/225/184 161/223/184 155/221/184
f 157/216/185 163/226/185 162/225/185 156/222/185
f 158/215/186 164/227/186 163/226/186 157/216/186
f 80/228/187 164/227/187 158/215/187
f 153/218/188 159/229/188 473/230/188 471/219/188
f 154/220/189 160/224/189 159/229/189 153/218/189
f 80/231/190 170/232/190 164/227/190
f 159/229/191 165/233/191 475/234/191 473/230/191
f 160/224/192 166/235/192 165/233/192 159/229/192
f 161/223/193 167/236/193 166/235/193 160/224/193
f 162/225/194 168/237/194 167/236/194 161/223/194
f 163/226/195 169/238/195 168/237/195 162/225/195
f 164/227/196 170/232/196 169/238/196 163/226/196
f 167/236/197 173/239/197 172/240/197 166/235/197
f 168/237/198 174/241/198 173/239/198 167/236/198
f 169/238/199 175/242/199 174/241/199 168/237/199
f 170/232/200 176/243/200 175/242/200 169/238/200
f 80/244/201 176/243/201 170/232/201
f 165/233/202 171/245/202 477/246/202 475/234/202
f 166/235/203 172/240/203 171/245/203 165/233/203
f 80/247/204 182/248/204 176/243/204
f 171/245/205 177/249/205 482/250/205 477/246/205
f 172/240/206 178/251/206 177/249/206 171/245/206
f 173/239/207 179/252/207 178/251/207 172/240/207
f 174/241/208 180/253/208 179/252/208 173/239/208
f 175/242/209 181/254/209 180/253/209 174/241/209
f 176/243/210 182/248/210 181/254/210 175/242/210
f 180/253/211 186/255/211 185/256/211 179/252/211
f 181/254/212 187/257/212 186/255/212 180/253/212
f 182/248/213 188/258/213 187/257/213 181/254/213
f 80/259/214 188/258/214 182/248/214
f 177/249/215 183/260/215 480/261/215 482/250/215
f 178/251/216 184/262/216 183/260/216 177/249/216
f 179/252/217 185/256/217 184/262/217 178/251/217
f 183/260/218 189/4/218 481/7/218 480/261/218
f 184/262/219 190/8/219 189/4/219 183/260/219
f 185/256/220 191/10/220 190/8/220 184/262/220
f 186/255/221 1/12/221 191/10/221 185/256/221
f 187/257/222 192/14/222 1/12/222 186/255/222
f 188/258/223 193/3/223 192/14/223 187/257/223
f 80/263/224 193/3/224 188/258/224
f 446/264/225 195/265/225 198/266/225 199/267/225
f 447/268/226 446/264/226 199/267/226 200/269/226
f 448/270/227 447/268/227 200/269/227 201/271/227
f 196/272/228 448/270/228 201/271/228 202/273/228
f 449/274/229 196/272/229 202/273/229 203/275/229
f 450/276/230 449/274/230 203/275/230 204/277/230
f 301/278/231 450/276/231 204/277/231
f 195/265/232 194/279/232 197/280/232 198/266/232
f 198/266/233 197/280/233 205/281/233 206/282/233
f 199/267/234 198/266/234 206/282/234 207/283/234
f 200/269/235 199/267/235 207/283/235 208/284/235
f 201/271/236 200/269/236 208/284/236 209/285/236
f 202/273/237 201/271/237 209/285/237 210/286/237
f 203/275/238 202/273/238 210/286/238 211/287/238
f 204/277/239 203/275/239 211/287/239 212/288/239
f 301/289/240 204/277/240 212/288/240
f 210/286/241 209/285/241 217/290/241 218/291/241
f 211/287/242 210/286/242 218/291/242 219/292/242
f 212/288/243 211/287/243 219/292/243 220/293/243
f 301/294/244 212/288/244 220/293/244
f 206/282/245 205/281/245 213/295/245 214/296/245
f 207/283/246 206/282/246 214/296/246 215/297/246
f 208/284/247 207/283/247 215/297/247 216/298/247
f 209/285/248 208/284/248 216/298/248 217/290/248
f 215/297/249 214/296/249 222/299/249 223/300/249
f 216/298/250 215/297/250 223/300/250 224/301/250
f 217/290/251 216/298/251 224/301/251 225/302/251
f 218/291/252 217/290/252 225/302/252 226/303/252
f 219/292/253 218/291/253 226/303/253 227/304/253
f 220/293/254 219/292/254 227/304/254 228/305/254
f 301/306/255 220/293/255 228/305/255
f 214/296/256 213/295/256 221/307/256 222/299/256
f 227/304/257 226/303/257 234/308/257 235/309/257
f 228/305/258 227/304/258 235/309/258 236/310/258
f 301/311/259 228/305/259 236/310/259
f 222/299/260 221/307/260 229/312/260 230/313/260
f 223/300/261 222/299/261 230/313/261 231/314/261
f 224/301/262 223/300/262 231/314/262 232/315/262
f 225/302/263 224/301/263 232/315/263 233/316/263
f 226/303/264 225/302/264 233/316/264 234/308/264
f 231/314/265 230/313/265 238/317/265 239/318/265
f 232/315/266 231/314/266 239/318/266 240/319/266
f 233/316/267 232/315/267 240/319/267 241/320/267
f 234/308/268 233/316/268 241/320/268 242/321/268
f 235/309/269 234/308/269 242/321/269 243/322/269
f 236/310/270 235/309/270 243/322/270 244/323/270
f 301/324/271 236/310/271 244/323/271
f 230/313/272 229/312/272 237/325/272 238/317/272
f 243/322/273 242/321/273 250/326/273 251/327/273
f 244/323/274 243/322/274 251/327/274 252/328/274
f 301/329/275 244/323/275 252/328/275
f 238/317/276 237/325/276 245/330/276 246/331/276
f 239/318/277 238/317/277 246/331/277 247/332/277
f 240/319/278 239/318/278 247/332/278 248/333/278
f 241/320/279 240/319/279 248/333/279 249/334/279
f 242/321/280 241/320/280 249/334/280 250/326/280
f 248/333/281 247/332/281 255/335/281 256/336/281
f 249/334/282 248/333/282 256/336/282 257/337/282
f 250/326/283 249/334/283 257/337/283 258/338/283
f 251/327/284 250/326/284 258/338/284 259/339/284
f 252/328/285 251/327/285 259/339/285 260/340/285
f 301/341/286 252/328/286 260/340/286
f 246/331/287 245/330/287 253/342/287 254/343/287
f 247/332/288 246/331/288 254/343/288 255/335/288
f 260/340/289 259/339/289 267/344/289 268/345/289
f 301/346/290 260/340/290 268/345/290
f 254/343/291 253/342/291 261/347/291 262/348/291
f 255/335/292 254/343/292 262/348/292 263/349/292
f 256/336/293 255/335/293 263/349/293 264/350/293
f 257/337/294 256/336/294 264/350/294 265/351/294
f 258/338/295 257/337/295 265/351/295 266/352/295
f 259/339/296 258/338/296 266/352/296 267/344/296
f 265/351/297 264/350/297 272/353/297 273/354/297
f 266/352/298 265/351/298 273/354/298 274/355/298
f 267/344/299 266/352/299 274/355/299 275/356/299
f 268/345/300 267/344/300 275/356/300 276/357/300
f 301/358/301 268/345/301 276/357/301
f 262/348/302 261/347/302 269/359/302 270/360/302
f 263/349/303 262/348/303 270/360/303 271/361/303
f 264/350/304 263/349/304 271/361/304 272/353/304
f 301/362/305 276/357/305 284/363/305
f 270/360/306 269/359/306 277/364/306 278/365/306
f 271/361/307 270/360/307 278/365/307 279/366/307
f 272/353/308 271/361/308 279/366/308 280/367/308
f 273/354/309 272/353/309 280/367/309 281/368/309
f 274/355/310 273/354/310 281/368/310 282/369/310
f 275/356/311 274/355/311 282/369/311 283/370/311
f 276/357/312 275/356/312 283/370/312 284/363/312
f 281/368/313 280/367/313 288/371/313 289/372/313
f 282/369/314 281/368/314 289/372/314 290/373/314
f 283/370/315 282/369/315 290/373/315 291/374/315
f 284/363/316 283/370/316 291/374/316 292/375/316
f 301/376/317 284/363/317 292/375/317
f 278/365/318 277/364/318 285/377/318 286/378/318
f 279/366/319 278/365/319 286/378/319 287/379/319
f 280/367/320 279/366/320 287/379/320 288/371/320
f 301/380/321 292/375/321 300/381/321
f 286/378/322 285/377/322 293/382/322 294/383/322
f 287/379/323 286/378/323 294/383/323 295/384/323
f 288/371/324 287/379/324 295/384/324 296/385/324
f 289/372/325 288/371/325 296/385/325 297/386/325
f 290/373/326 289/372/326 297/386/326 298/387/326
f 291/374/327 290/373/327 298/387/327 299/388/327
f 292/375/328 291/374/328 299/388/328 300/381/328
f 298/387/329 297/386/329 306/389/329 307/390/329
f 299/388/330 298/387/330 307/390/330 308/391/330
f 300/381/331 299/388/331 308/391/331 309/392/331
f 301/393/332 300/381/332 309/392/332
f 294/383/333 293/382/333 302/394/333 303/395/333
f 295/384/334 294/383/334 303/395/334 304/396/334
f 296/385/335 295/384/335 304/396/335 305/397/335
f 297/386/336 296/385/336 305/397/336 306/389/336
f 303/395/337 302/394/337 310/398/337 311/399/337
f 304/396/338 303/395/338 311/399/338 312/400/338
f 305/397/339 304/396/339 312/400/339 313/401/339
f 306/389/340 305/397/340 313/401/340 314/402/340
f 307/390/341 306/389/341 314/402/341 315/403/341
f 308/391/342 307/390/342 315/403/342 316/404/342
f 309/392/343 308/391/343 316/404/343 317/405/343
f 301/406/344 309/392/344 317/405/344
f 315/403/345 314/402/345 322/407/345 323/408/345
f 316/404/346 315/403/346 323/408/346 324/409/346
f 317/405/347 316/404/347 324/409/347 325/410/347
f 301/411/348 317/405/348 325/410/348
f 311/399/349 310/398/349 318/412/349 319/413/349
f 312/400/350 311/399/350 319/413/350 320/414/350
f 313/401/351 312/400/351 320/414/351 321/415/351
f 314/402/352 313/401/352 321/415/352 322/407/352
f 320/414/353 319/413/353 327/416/353 328/417/353
f 321/415/354 320/414/354 328/417/354 329/418/354
f 322/407/355 321/415/355 329/418/355 330/419/355
f 323/408/356 322/407/356 330/419/356 331/420/356
f 324/409/357 323/408/357 331/420/357 332/421/357
f 325/410/358 324/409/358 332/421/358 333/422/358
f 301/423/359 325/410/359 333/422/359
f 319/413/360 318/412/360 326/424/360 327/416/360
f 332/421/361 331/420/361 339/425/361 340/426/361
f 333/422/362 332/421/362 340/426/362 341/427/362
f 301/428/363 333/422/363 341/427/363
f 327/416/364 326/424/364 334/429/364 335/430/364
f 328/417/365 327/416/365 335/430/365 336/431/365
f 329/418/366 328/417/366 336/431/366 337/432/366
f 330/419/367 329/418/367 337/432/367 338/433/367
f 331/420/368 330/419/368 338/433/368 339/425/368
f 337/432/369 336/431/369 344/434/369 345/435/369
f 338/433/370 337/432/370 345/435/370 346/436/370
f 339/425/371 338/433/371 346/436/371 347/437/371
f 340/426/372 339/425/372 347/437/372 348/438/372
f 341/427/373 340/426/373 348/438/373 349/439/373
f 301/440/374 341/427/374 349/439/374
f 335/430/375 334/429/375 342/441/375 343/442/375
f 336/431/376 335/430/376 343/442/376 344/434/376
f 349/439/377 348/438/377 356/443/377 357/444/377
f 301/445/378 349/439/378 357/444/378
f 343/442/379 342/441/379 350/446/379 351/447/379
f 344/434/380 343/442/380 351/447/380 352/448/380
f 345/435/381 344/434/381 352/448/381 353/449/381
f 346/436/382 345/435/382 353/449/382 354/450/382
f 347/437/383 346/436/383 354/450/383 355/451/383
f 348/438/384 347/437/384 355/451/384 356/443/384
f 353/449/385 352/448/385 360/452/385 361/453/385
f 354/450/386 353/449/386 361/453/386 362/454/386
f 355/451/387 354/450/387 362/454/387 363/455/387
f 356/443/388 355/451/388 363/455/388 364/456/388
f 357/444/389 356/443/389 364/456/389 365/457/389
f 301/458/390 357/444/390 365/457/390
f 351/447/391 350/446/391 358/459/391 359/460/391
f 352/448/392 351/447/392 359/460/392 360/452/392
f 365/457/393 364/456/393 372/461/393 373/462/393
f 301/463/394 365/457/394 373/462/394
f 359/460/395 358/459/395 366/464/395 367/465/395
f 360/452/396 359/460/396 367/465/396 368/466/396
f 361/453/397 360/452/397 368/466/397 369/467/397
f 362/454/398 361/453/398 369/467/398 370/468/398
f 363/455/399 362/454/399 370/468/399 371/469/399
f 364/456/400 363/455/400 371/469/400 372/461/400
f 370/468/401 369/467/401 377/470/401 378/471/401
f 371/469/402 370/468/402 378/471/402 379/472/402
f 372/461/403 371/469/403 379/472/403 380/473/403
f 373/462/404 372/461/404 380/473/404 381/474/404
f 301/475/405 373/462/405 381/474/405
f 367/465/406 366/464/406 374/476/406 375/477/406
f 368/466/407 367/465/407 375/477/407 376/478/407
f 369/467/408 368/466/408 376/478/408 377/470/408
f 301/479/409 381/474/409 389/480/409
f 375/477/410 374/476/410 382/481/410 383/482/410
f 376/478/411 375/477/411 383/482/411 384/483/411
f 377/470/412 376/478/412 384/483/412 385/484/412
f 378/471/413 377/470/413 385/484/413 386/485/413
f 379/472/414 378/471/414 386/485/414 387/486/414
f 380/473/415 379/472/415 387/486/415 388/487/415
f 381/474/416 380/473/416 388/487/416 389/480/416
f 386/488/417 385/489/417 393/490/417 394/491/417
f 387/492/418 386/488/418 394/491/418 395/493/418
f 388/494/419 387/492/419 395/493/419 396/495/419
f 389/496/420 388/494/420 396/495/420 397/497/420
f 301/498/421 389/496/421 397/497/421
f 383/499/422 382/500/422 390/501/422 391/502/422
f 384/503/423 383/499/423 391/502/423 392/504/423
f 385/489/424 384/503/424 392/504/424 393/490/424
f 301/505/425 397/497/425 405/506/425
f 391/502/426 390/501/426 398/507/426 399/508/426
f 392/504/427 391/502/427 399/508/427 400/509/427
f 393/490/428 392/504/428 400/509/428 401/510/428
f 394/491/429 393/490/429 401/510/429 402/511/429
f 395/493/430 394/491/430 402/511/430 403/512/430
f 396/495/431 395/493/431 403/512/431 404/513/431
f 397/497/432 396/495/432 404/513/432 405/506/432
f 403/512/433 402/511/433 410/514/433 411/515/433
f 404/513/434 403/512/434 411/515/434 412/516/434
f 405/506/435 404/513/435 412/516/435 413/517/435
f 301/518/436 405/506/436 413/517/436
f 399/508/437 398/507/437 406/519/437 407/520/437
f 400/509/438 399/508/438 407/520/438 408/521/438
f 401/510/439 400/509/439 408/521/439 409/522/439
f 402/511/440 401/510/440 409/522/440 410/514/440
f 408/521/441 407/520/441 415/523/441 416/524/441
f 409/522/442 408/521/442 416/524/442 417/525/442
f 410/514/443 409/522/443 417/525/443 418/526/443
f 411/515/444 410/514/444 418/526/444 419/527/444
f 412/516/445 411/515/445 419/527/445 420/528/445
f 413/517/446 412/516/446 420/528/446 421/529/446
f 301/530/447 413/517/447 421/529/447
f 407/520/448 406/519/448 414/531/448 415/523/448
f 420/528/449 419/527/449 427/532/449 428/533/449
f 421/529/450 420/528/450 428/533/450 429/534/450
f 301/535/451 421/529/451 429/534/451
f 415/523/452 414/531/452 422/536/452 423/537/452
f 416/524/453 415/523/453 423/537/453 424/538/453
f 417/525/454 416/524/454 424/538/454 425/539/454
f 418/526/455 417/525/455 425/539/455 426/540/455
f 419/527/456 418/526/456 426/540/456 427/532/456
f 424/538/457 423/537/457 431/541/457 432/542/457
f 425/539/458 424/538/458 432/542/458 433/543/458
f 426/540/459 425/539/459 433/543/459 434/544/459
f 427/532/460 426/540/460 434/544/460 435/545/460
f 428/533/461 427/532/461 435/545/461 436/546/461
f 429/534/462 428/533/462 436/546/462 437/547/462
f 301/548/463 429/534/463 437/547/463
f 423/537/464 422/536/464 430/549/464 431/541/464
f 436/546/465 435/545/465 443/550/465 444/551/465
f 437/547/466 436/546/466 444/551/466 445/552/466
f 301/553/467 437/547/467 445/552/467
f 431/541/468 430/549/468 438/554/468 439/555/468
f 432/542/469 431/541/469 439/555/469 440/556/469
f 433/543/470 432/542/470 440/556/470 441/557/470
f 434/544/471 433/543/471 441/557/471 442/558/471
f 435/545/472 434/544/472 442/558/472 443/550/472
f 441/557/473 440/556/473 446/264/473 447/268/473
f 442/558/474 441/557/474 447/268/474 448/270/474
f 443/550/475 442/558/475 448/270/475 196/272/475
f 444/551/476 443/550/476 196/272/476 449/274/476
f 445/552/477 444/551/477 449/274/477 450/276/477
f 301/559/478 445/552/478 450/276/478
f 439/555/479 438/554/479 194/279/479 195/265/479
f 440/556/480 439/555/480 195/265/480 446/264/480
f 342/441/481 334/429/481 501/560/481 502/561/481
f 480/261/482 481/7/482 545/562/482 544/563/482
f 507/564/483 506/565/483 570/566/483 571/567/483
f 530/568/484 533/569/484 597/570/484 594/571/484
f 455/103/485 456/108/485 520/572/485 519/573/485
f 477/246/486 482/250/486 546/574/486 541/575/486
f 205/281/487 197/280/487 484/576/487 485/577/487
f 456/108/488 457/119/488 521/578/488 520/572/488
f 302/394/486 293/382/486 496/579/486 497/580/486
f 457/119/489 458/124/489 522/581/489 521/578/489
f 261/347/484 253/342/484 491/582/484 492/583/484
f 458/124/490 459/135/490 523/584/490 522/581/490
f 358/459/491 350/446/491 503/585/491 504/586/491
f 277/364/492 269/359/492 493/587/492 494/588/492
f 459/135/493 460/139/493 524/589/493 523/584/493
f 414/531/494 406/519/494 510/590/494 511/591/494
f 460/139/487 461/150/487 525/592/487 524/589/487
f 318/412/482 310/398/482 498/593/482 499/594/482
f 461/150/495 462/153/495 526/595/495 525/592/495
f 374/476/496 366/464/496 505/596/496 506/565/496
f 462/153/497 463/166/497 527/597/497 526/595/497
f 334/429/498 326/424/498 500/598/498 501/560/498
f 465/169/499 464/181/499 528/599/499 529/600/499
f 430/549/488 422/536/488 512/601/488 513/602/488
f 463/166/500 465/169/500 529/600/500 527/597/500
f 467/185/501 466/197/501 530/603/501 531/604/501
f 390/501/502 382/500/502 507/605/502 508/606/502
f 293/382/503 285/377/503 495/607/503 496/579/503
f 221/307/497 213/295/497 486/608/497 487/609/497
f 350/446/504 342/441/504 502/561/504 503/585/504
f 464/181/505 467/185/505 531/604/505 528/599/505
f 468/62/483 451/65/483 515/610/483 532/611/483
f 406/519/506 398/507/506 509/612/506 510/590/506
f 466/214/484 469/213/484 533/569/484 530/568/484
f 310/398/507 302/394/507 497/580/507 498/593/507
f 469/213/508 471/219/508 535/613/508 533/569/508
f 237/325/499 229/312/499 488/614/499 489/615/499
f 366/464/509 358/459/509 504/586/509 505/596/509
f 470/51/496 468/62/496 532/611/496 534/616/496
f 422/536/485 414/531/485 511/591/485 512/601/485
f 472/47/509 470/51/509 534/616/509 536/617/509
f 382/481/483 374/476/483 506/565/483 507/564/483
f 471/219/492 473/230/492 537/618/492 535/613/492
f 253/342/501 245/330/501 490/619/501 491/582/501
f 474/35/491 472/47/491 536/617/491 538/620/491
f 197/280/493 194/279/493 483/621/493 484/576/493
f 213/295/495 205/281/495 485/577/495 486/608/495
f 473/230/510 475/234/510 539/622/510 537/618/510
f 438/554/489 430/549/489 513/602/489 514/623/489
f 476/31/504 474/35/504 538/620/504 540/624/504
f 269/359/508 261/347/508 492/583/508 493/587/508
f 194/279/490 438/554/490 514/623/490 483/621/490
f 475/234/503 477/246/503 541/575/503 539/622/503
f 229/312/500 221/307/500 487/609/500 488/614/500
f 479/6/498 478/20/498 542/625/498 543/626/498
f 398/507/511 390/501/511 508/606/511 509/612/511
f 451/65/502 452/77/502 516/627/502 515/610/502
f 482/250/507 480/261/507 544/563/507 546/574/507
f 326/424/512 318/412/512 499/594/512 500/598/512
f 452/77/511 453/81/511 517/628/511 516/627/511
f 285/377/510 277/364/510 494/588/510 495/607/510
f 478/20/481 476/31/481 540/624/481 542/625/481
f 453/81/506 454/93/506 518/629/506 517/628/506
f 481/7/512 479/6/512 543/626/512 545/562/512
f 454/93/494 455/103/494 519/573/494 518/629/494
f 245/330/505 237/325/505 489/615/505 490/619/505
f 548/630/513 547/631/513 578/632/513 577/633/513 576/634/513 575/635/513 574/636/513 573/637/513 572/638/513 571/639/513 594/640/513 597/641/513 599/642/513 601/643/513 603/644/513 605/645/513 610/646/513 608/647/513 609/648/513 607/649/513 606/650/513 604/651/513 602/652/513 600/653/513 598/654/513 596/655/513 579/656/513 555/657/513 554/658/513 553/659/513 552/660/513 551/661/513 550/662/513 549/663/513
f 555/657/513 579/656/513 580/664/513 581/665/513 582/666/513 583/667/513 584/668/513 585/669/513 586/670/513 587/671/513 588/672/513 589/673/513 590/674/513 591/675/513 593/676/513 592/677/513 595/678/513 594/640/513 571/639/513 570/679/513 569/680/513 568/681/513 567/682/513 566/683/513 565/684/513 564/685/513 563/686/513 562/687/513 561/688/513 560/689/513 559/690/513 558/691/513 557/692/513 556/693/513
f 533/569/508 535/613/508 599/694/508 597/570/508
f 508/606/502 507/605/502 571/695/502 572/696/502
f 534/616/496 532/611/496 596/697/496 598/698/496
f 509/612/511 508/606/511 572/696/511 573/699/511
f 536/617/509 534/616/509 598/698/509 600/700/509
f 510/590/506 509/612/506 573/699/506 574/701/506
f 484/576/493 483/621/493 547/702/493 548/703/493
f 535/613/492 537/618/492 601/704/492 599/694/492
f 511/591/494 510/590/494 574/701/494 575/705/494
f 485/577/487 484/576/487 548/703/487 549/706/487
f 538/620/491 536/617/491 600/700/491 602/707/491
f 512/601/485 511/591/485 575/705/485 576/708/485
f 486/608/495 485/577/495 549/706/495 550/709/495
f 537/618/510 539/622/510 603/710/510 601/704/510
f 513/602/488 512/601/488 576/708/488 577/711/488
f 487/609/497 486/608/497 550/709/497 551/712/497
f 540/624/504 538/620/504 602/707/504 604/713/504
f 514/623/489 513/602/489 577/711/489 578/714/489
f 488/614/500 487/609/500 551/712/500 552/715/500
f 539/622/503 541/575/503 605/716/503 603/710/503
f 483/621/490 514/623/490 578/714/490 547/702/490
f 489/615/499 488/614/499 552/715/499 553/717/499
f 543/626/498 542/625/498 606/718/498 607/719/498
f 515/610/502 516/627/502 580/720/502 579/721/502
f 490/619/505 489/615/505 553/717/505 554/722/505
f 546/574/507 544/563/507 608/723/507 610/724/507
f 516/627/511 517/628/511 581/725/511 580/720/511
f 491/582/501 490/619/501 554/722/501 555/726/501
f 542/625/481 540/624/481 604/713/481 606/718/481
f 517/628/506 518/629/506 582/727/506 581/725/506
f 492/583/484 491/582/484 555/726/484 556/728/484
f 545/562/512 543/626/512 607/719/512 609/729/512
f 518/629/494 519/573/494 583/730/494 582/727/494
f 493/587/508 492/583/508 556/728/508 557/731/508
f 544/563/482 545/562/482 609/729/482 608/723/482
f 519/573/485 520/572/485 584/732/485 583/730/485
f 494/588/492 493/587/492 557/731/492 558/733/492
f 541/575/486 546/574/486 610/724/486 605/716/486
f 520/572/488 521/578/488 585/734/488 584/732/488
f 495/607/510 494/588/510 558/733/510 559/735/510
f 521/578/489 522/581/489 586/736/489 585/734/489
f 496/579/503 495/607/503 559/735/503 560/737/503
f 522/581/490 523/584/490 587/738/490 586/736/490
f 497/580/486 496/579/486 560/737/486 561/739/486
f 523/584/493 524/589/493 588/740/493 587/738/493
f 498/593/507 497/580/507 561/739/507 562/741/507
f 524/589/487 525/592/487 589/742/487 588/740/487
f 499/594/482 498/593/482 562/741/482 563/743/482
f 525/592/495 526/595/495 590/744/495 589/742/495
f 500/598/512 499/594/512 563/743/512 564/745/512
f 526/595/497 527/597/497 591/746/497 590/744/497
f 501/560/498 500/598/498 564/745/498 565/747/498
f 529/600/499 528/599/499 592/748/499 593/749/499
f 502/561/481 501/560/481 565/747/481 566/750/481
f 527/597/500 529/600/500 593/749/500 591/746/500
f 503/585/504 502/561/504 566/750/504 567/751/504
f 531/604/501 530/603/501 594/752/501 595/753/501
f 504/586/491 503/585/491 567/751/491 568/754/491
f 528/599/505 531/604/505 595/753/505 592/748/505
f 505/596/509 504/586/509 568/754/509 569/755/509
f 532/611/483 515/610/483 579/721/483 596/697/483
f 506/565/496 505/596/496 569/755/496 570/566/496
f 551/661/514 550/662/514 614/756/514 615/757/514
f 578/632/514 577/633/514 641/758/514 642/759/514
f 565/684/514 564/685/514 628/760/514 629/761/514
f 552/660/514 551/661/514 615/757/514 616/762/514
f 547/631/514 578/632/514 642/759/514 611/763/514
f 566/683/514 565/684/514 629/761/514 630/764/514
f 553/659/514 552/660/514 616/762/514 617/765/514
f 567/682/514 566/683/514 630/764/514 631/766/514
f 554/658/514 553/659/514 617/765/514 618/767/514
f 568/681/514 567/682/514 631/766/514 632/768/514
f 555/657/514 554/658/514 618/767/514 619/769/514
f 569/680/514 568/681/514 632/768/514 633/770/514
f 556/693/514 555/657/514 619/769/514 620/771/514
f 570/679/514 569/680/514 633/770/514 634/772/514
f 557/692/514 556/693/514 620/771/514 621/773/514
f 570/566/514 571/567/514 635/774/514 634/775/514
f 558/691/514 557/692/514 621/773/514 622/776/514
f 572/638/514 571/639/514 635/777/514 636/778/514
f 559/690/514 558/691/514 622/776/514 623/779/514
f 573/637/514 572/638/514 636/778/514 637/780/514
f 560/689/514 559/690/514 623/779/514 624/781/514
f 574/636/514 573/637/514 637/780/514 638/782/514
f 561/688/514 560/689/514 624/781/514 625/783/514
f 548/630/514 547/631/514 611/763/514 612/784/514
f 575/635/514 574/636/514 638/782/514 639/785/514
f 562/687/514 561/688/514 625/783/514 626/786/514
f 549/663/514 548/630/514 612/784/514 613/787/514
f 576/634/514 575/635/514 639/785/514 640/788/514
f 563/686/514 562/687/514 626/786/514 627/789/514
f 550/662/514 549/663/514 613/787/514 614/756/514
f 577/633/514 576/634/514 640/788/514 641/758/514
f 564/685/514 563/686/514 627/789/514 628/760/514
